{
    "name": "Pátek po 2. neděli postní",
    "stupen-slaveni": "běžný",
    "color": {
        "cz": "fialová",
        "en": "deep-purple"
    },
    "misal": {
        "1-cteni": {
            "name": "1. čtení – Gn 37,3-4.12-13a.17b-28",
            "type": "1. čtení",
            "ref": "Gn 37,3-4.12-13a.17b-28",
            "lines": [
                "Tamhle přichází ten snílek. Nuže pojďme, zabijme ho!",
                "Čtení z první knihy Mojžíšovy.",
                "Izrael miloval Josefa víc než všechny své syny, poněvadž se mu narodil ve stáří; dal mu zhotovit dlouhou suknici. Když jeho bratři viděli, že ho otec miluje víc než všechny své syny, nenáviděli ho a nechtěli s ním ani laskavě promluvit. Jednou šli bratři pást ovce svého otce k Sichemu; Izrael řekl Josefovi: „Tvoji bratři šli pást k Sichemu, pojď, pošlu tě k nim.“ Josef tedy šel za svými bratry a našel je v Dotanu. Viděli ho z dálky, a dříve než k nim došel, lstivě se smluvili, že ho zabijí. Řekli si mezi sebou: „Tamhle přichází ten snílek. Nuže pojďme, zabijme ho a hoďme ho do nějaké cisterny a řekněme, že ho sežrala dravá šelma, a uvidíme, k čemu budou jeho sny.“ Ruben to slyšel a poněvadž ho chtěl z jejich rukou vysvobodit, řekl: „Nezabíjejme ho!“ A dodal: „Neprolévejte krev, hoďte ho do této cisterny, která je tady na stepi, ale nevkládejme na něj ruku!“ Chtěl ho z jejich rukou vysvobodit a vrátit jeho otci. Když tedy přišel Josef ke svým bratřím, svlékli ho z jeho suknice, kterou měl na sobě. Vzali ho a hodili do cisterny. Cisterna byla prázdná, nebyla v ní voda. Sedli si, aby se najedli. Když zdvihli oči, podívali se – a hle, karavana Izmaelitů přicházela z Gileadu. Jejich velbloudi nesli dragantovou gumu, balzám a vonnou pryskyřici. Chtěli to dopravit do Egypta. Juda řekl svým bratřím: „Jaký užitek budeme mít z toho, že svého bratra zabijeme, i když zahladíme stopy po jeho krvi. Nuže, prodejme ho Izmaelitům, ať na něm není naše ruka, vždyť je to náš tělesný bratr.“ Bratři ho poslechli. Když kolem přecházeli obchodníci z Midjanu, (bratři) rychle Josefa z cisterny vytáhli a prodali Izmaelitům za dvacet stříbrných, a ti ho přivedli do Egypta."
            ]
        },
        "mezizpev": {
            "name": "Mezizpěv – Žl 105,16-17.18-19.20-21",
            "type": "Mezizpěv",
            "ref": "Žl 105,16-17.18-19.20-21",
            "lines": [
                "Pamatujte na divy, které učinil Hospodin.",
                "(Hospodin) přivolal na zemi hlad,\nzbavil je chleba.\nPoslal před nimi muže,\nJosef byl prodán za otroka.",
                "Sevřeli pouty jeho nohy,\ndo želez jeho hrdlo,\ndokud se nesplnil jeho výrok,- Hospodinovo slovo jej ověřilo.",
                "Král poslal, a osvobodil ho,\nvládce národů ho propustil.\nUstanovil ho pánem svého domu\na vládcem veškerého svého majetku."
            ]
        },
        "zpev-pred-evangeliem": {
            "name": "Zpěv před evangeliem – srov. Jan 3,16",
            "type": "Zpěv před evangeliem",
            "ref": "srov. Jan 3,16",
            "lines": [
                "Tak Bůh miloval svět, že dal svého jednorozeného Syna; každý, kdo v něho věří, má věčný život."
            ]
        },
        "evangelium": {
            "name": "Evangelium – Mt 21,33-43.45-46",
            "type": "Evangelium",
            "ref": "Mt 21,33-43.45-46",
            "lines": [
                "To je dědic. Pojďte, zabijme ho.",
                "Slova svatého evangelia podle Matouše.",
                "Ježíš řekl velekněžím a starším lidu: „Poslyšte jiné podobenství: Byl jeden hospodář a ten vysázel vinici. Obehnal ji plotem, vykopal v ní jámu pro lis a vystavěl strážní věž, pronajal ji vinařům a vydal se na cesty. Když se přiblížilo vinobraní, poslal k vinařům své služebníky vyzvednout z ní výtěžek. Ale vinaři jeho služebníky popadli, jednoho zbili, druhého zabili, třetího ukamenovali. (Hospodář) poslal tedy jiné služebníky, ještě ve větším počtu než poprvé, ale naložili s nimi zrovna tak. Naposled k nim poslal svého syna; myslel si: `Na mého syna budou mít ohled.' Když však vinaři uviděli syna, řekli si mezi sebou: `To je dědic. Pojďte, zabijme ho, a jeho dědictví bude naše!' A popadli ho, vyhnali ven z vinice a zabili. Až pak přijde pán té vinice, co asi s těmi vinaři udělá?“ Odpověděli mu: „Krutě ty zlosyny zahubí a svou vinici pronajme jiným vinařům, kteří mu budou ve svůj čas odvádět výtěžek.“ Ježíš jim řekl: „Nečetli jste nikdy v Písmu: `Kámen, který stavitelé odvrhli, stal se kvádrem nárožním. Učinil to Pán a v našich očích je to podivuhodné'? Proto vám říkám: Vám bude Boží království odňato a bude dáno národu, který ponese jeho ovoce.“ Když velekněží a farizeové uslyšeli tato jeho podobenství, poznali, že mluví o nich. Hleděli se ho zmocnit, ale měli strach z lidu, protože (lidé) ho považovali za proroka."
            ]
        }
    }
}
