{
    "name": "Úterý po 5. neděli postní",
    "stupen-slaveni": "běžný",
    "color": {
        "cz": "fialová",
        "en": "deep-purple"
    },
    "misal": {
        "1-cteni": {
            "name": "1. čtení – Nm 21,4b-9",
            "type": "1. čtení",
            "ref": "Nm 21,4b-9",
            "lines": [
                "Každý uštknutý, když se podívá na měděného hada, zůstane na živu.",
                "Čtení ze čtvrté knihy Mojžíšovy.",
                "Hebreové táhli od hory Hor cestou směrem k Rákosovému moři, aby obešli zemi Edomitů, a lid už omrzelo být stále na cestě. Lidé mluvili proti Bohu i Mojžíšovi: „Proč jste nás vyvedli z Egypta? Abychom umřeli tady na poušti. Není chléb ani voda. Už máme dost té hladové stravy.“ Hospodin poslal proto na lid jedovaté hady, jejichž uštknutí způsobilo smrt mnoha lidí z Izraele. Lidé přišli k Mojžíšovi a řekli: „Hřešili jsme, když jsme mluvili proti Hospodinu a proti tobě; modli se k Hospodinu, aby od nás odstranil hady.“ A Mojžíš se modlil za lid. Hospodin řekl Mojžíšovi: „Udělej si hada a vztyč ho na kůl; každý uštknutý, když se na něj podívá, zůstane na živu.“ Mojžíš zhotovil měděného hada, vztyčil ho na kůl, a když had někoho uštkl a ten pohlédl na měděného hada, zůstal na živu."
            ]
        },
        "mezizpev": {
            "name": "Mezizpěv – Žl 102,2-3.16-18.19-21",
            "type": "Mezizpěv",
            "ref": "Žl 102,2-3.16-18.19-21",
            "lines": [
                "Hospodine, slyš modlitbu mou a volání mé ať pronikne k tobě!",
                "Hospodine, slyš modlitbu mou\na volání mé ať pronikne k tobě! ",
                "Neskrývej tvář svou přede mnou\nv den, kdy je mi úzko.\nNakloň ke mně svůj sluch,\nkdyž volám, rychle mě vyslyš!",
                "Pohané budou ctít jméno tvé, Hospodine,\na všichni králové země tvou slávu,\naž Hospodin znovu zbuduje Sión,\naž se objeví ve své slávě.\nSkloní se k modlitbě opuštěných\na nepohrdne jejich prosbou.",
                "Kéž je to zapsáno pro příští pokolení,\naby budoucí národ chválil Hospodina.\nNeboť Hospodin shlédl ze své vznešené svatyně,\npopatřil z nebe na zem,\naby slyšel nářek zajatců,\naby vysvobodil odsouzené k smrti."
            ]
        },
        "zpev-pred-evangeliem": {
            "name": "Zpěv před evangeliem",
            "type": "Zpěv před evangeliem",
            "ref": "",
            "lines": [
                "Semeno je Boží slovo, rozsévač je Kristus. Každý, kdo ho nalezne, vytrvá navěky."
            ]
        },
        "evangelium": {
            "name": "Evangelium – Jan 8,21-30",
            "type": "Evangelium",
            "ref": "Jan 8,21-30",
            "lines": [
                "Až povýšíte Syna člověka, tehdy poznáte, že jsem to já.",
                "Slova svatého evangelia podle Jana.",
                "Ježíš řekl farizeům: „Já odcházím. Budete mě hledat, ale zemřete ve svém hříchu. Kam jdu já, tam vy přijít nemůžete.“ Židé říkali: „Chce si snad vzít život, že prohlašuje: `Kam jdu já, tam vy přijít nemůžete'?“ A on jim řekl: „Vy jste zdola, já jsem shora. Vy jste z tohoto světa, já z tohoto světa nejsem. Proto jsem vám řekl, že zemřete ve svých hříších. Ano, jestliže neuvěříte, že jsem to já, zemřete ve svých hříších.“ Zeptali se ho: „Kdo (tedy) jsi?“ Ježíš jim odpověděl: „Stále vám to říkám. Měl bych o vás hodně co mluvit a co soudit; ale ten, který mě poslal, je pravdivý, a já mluvím k světu to, co jsem slyšel od něho.“ Nepochopili, že k nim mluvil o Otci. Ježíš jim řekl: „Až povýšíte Syna člověka, tehdy poznáte, že jsem to já a že sám ze sebe nic nekonám, ale tak mluvím, jak mě naučil Otec. A ten, který mě poslal, je se mnou. Nenechal mě samotného, protože já stále konám to, co se mu líbí.“ Když tak mluvil, mnozí v něho uvěřili."
            ]
        }
    }
}
