{
    "name": "Pátek po 1. neděli postní",
    "stupen-slaveni": "běžný",
    "color": {
        "cz": "fialová",
        "en": "deep-purple"
    },
    "misal": {
        "1-cteni": {
            "name": "1. čtení – Ez 18,21-28",
            "type": "1. čtení",
            "ref": "Ez 18,21-28",
            "lines": [
                "Mám snad zalíbení v zločincově smrti, anebo spíše chci, aby změnil své chování a byl živ?",
                "Čtení z knihy proroka Ezechiela.",
                "Toto praví Hospodin, Bůh: „Jestliže se zločinec odvrátí od svých hříchů, které spáchal, bude-li zachovávat mé příkazy, bude jednat podle práva a spravedlnosti, jistě bude živ a nezemře. Nebude se vzpomínat na žádné jeho nepravosti, které spáchal. Bude žít pro svou spravedlnost, kterou činí. Mám snad zalíbení v zločincově smrti – praví Pán, Hospodin – anebo spíše (chci), aby změnil své chování a byl živ? Opustí-li však spravedlivý svou spravedlnost a bude-li jednat ohavně jako zločinec, bude živ? Na žádný jeho spravedlivý skutek, který učinil, se nevzpomene, zemře pro svou nevěrnost, které se dopustil, pro hřích, který spáchal. Říkáte: `Pán nejedná správně!' Slyšte tedy, izraelský dome! Je to mé jednání, které není správné, nebo spíš vaše? Jestliže spravedlivý opustí svou spravedlnost a páchá nepravost a zemře, zemře pro nepravost, které se dopustil. Jestliže se však zločinec odvrátí od svých zlých skutků, které spáchal, a jedná podle práva a spravedlnosti, sám sebe zachrání. Neboť proto, že se bál a odvrátil od všech svých nepravostí, které spáchal, jistě bude živ a nezemře.“"
            ]
        },
        "mezizpev": {
            "name": "Mezizpěv – Žl 130,1-2.3-4ab.4c-6.7-8",
            "type": "Mezizpěv",
            "ref": "Žl 130,1-2.3-4ab.4c-6.7-8",
            "lines": [
                "Budeš-li uchovávat v paměti viny, Hospodine, Pane, kdo obstojí?",
                "Z hlubin volám k tobě, Hospodine,\nPane, vyslyš můj hlas!\nTvůj sluch ať je nakloněn\nk mé snažné prosbě!",
                "Budeš-li uchovávat v paměti viny, Hospodine,\nPane, kdo obstojí?\nAle u tebe je odpuštění,\nabychom ti mohli v úctě sloužit.",
                "Doufám v Hospodina,\nduše má doufá v jeho slovo,\nmá duše čeká na Pána\nvíce než stráže na svítání.",
                "Více než stráže na svítání\nať čeká Izrael na Hospodina.\nNeboť u Hospodina je slitování,\nhojné je u něho vykoupení.\nOn vykoupí Izraele\nze všech jeho provinění."
            ]
        },
        "zpev-pred-evangeliem": {
            "name": "Zpěv před evangeliem – srov. Ez 18,31",
            "type": "Zpěv před evangeliem",
            "ref": "srov. Ez 18,31",
            "lines": [
                "Odvrhněte od sebe všechny své zvrácenosti, praví Pán, a obnovte své srdce a svého ducha."
            ]
        },
        "evangelium": {
            "name": "Evangelium – Mt 5,20-26",
            "type": "Evangelium",
            "ref": "Mt 5,20-26",
            "lines": [
                "Jdi se napřed smířit se svým bratrem.",
                "Slova svatého evangelia podle Matouše.",
                "Ježíš řekl svým učedníkům: „Nebude-li vaše spravedlnost mnohem dokonalejší než spravedlnost učitelů Zákona a farizeů, do nebeského království nevejdete. Slyšeli jste, že bylo řečeno předkům: `Nezabiješ.' Kdo by zabil propadne soudu. Ale já vám říkám: Každý, kdo se na svého bratra hněvá, propadne soudu; kdo svého bratra tupí, propadne veleradě; a kdo ho zatracuje, propadne pekelnému ohni. Přinášíš-li tedy svůj dar k oltáři a tam si vzpomeneš, že tvůj bratr má něco proti tobě, nech tam svůj dar před oltářem a jdi se napřed smířit se svým bratrem, teprve potom přijď a obětuj svůj dar. Dohodni se rychle se svým protivníkem, dokud jsi s ním na cestě, aby tě tvůj protivník neodevzdal soudci a soudce služebníkovi, a byl bys uvržen do žaláře. Amen, pravím ti: Nevyjdeš odtamtud, dokud nezaplatíš do posledního halíře.“"
            ]
        }
    }
}
