{
    "name": "6. NEDĚLE V MEZIDOBÍ",
    "stupen-slaveni": "běžný",
    "color": {
        "cz": "zelená",
        "en": "green"
    },
    "misal": {
        "1-cteni": {
            "name": "1. čtení – Lv 13,1-2.45-46",
            "type": "1. čtení",
            "ref": "Lv 13,1-2.45-46",
            "lines": [
                "Malomocný bude bydlet sám a zdržovat se mimo tábor.",
                "Čtení z třetí knihy Mojžíšovy.",
                "Hospodin řekl Mojžíšovi a Árónovi: „Jestliže se u někoho ukáže na holé kůži vřed, strup nebo světlá skvrna\ncož bývají příznaky zhoubného malomocenství – ať je přiveden k veleknězi Árónovi nebo k některému z jeho synů kněží. Malomocný, na němž se objeví tato vyrážka, ať chodí v roztržených šatech, s rozpuštěnými vlasy a se zahalenými vousy a bude volat: Nečistý, nečistý! Je nečistý po všechen čas, pokud bude mít vyrážku. Je nečistý, bude bydlet sám, musí se zdržovat mimo tábor.“"
            ]
        },
        "mezizpev": {
            "name": "Mezizpěv – Žl 32,1-2.5.11",
            "type": "Mezizpěv",
            "ref": "Žl 32,1-2.5.11",
            "lines": [
                "Tys mé útočiště, zahrneš mě radostí ze záchrany.",
                "Šťastný je ten, komu byla odpuštěna nepravost,\njehož hřích je přikryt.\nŠťastný je člověk, kterému Hospodin nepřičítá vinu,\nv jehož duši není klamu.",
                "Vyznal jsem se ti ze svého hříchu,\nsvou nepravost jsem nezatajil.\nŘekl jsem: „Vyznávám se Hospodinu ze své ničemnosti.“\nA tys odpustil, co jsem zavinil hříchem.",
                "Radujte se z Hospodina a těšte se, spravedliví,\njásejte všichni, kdo jste upřímného srdce."
            ]
        },
        "2-cteni": {
            "name": "2. čtení – 1 Kor 10,31-11,1",
            "type": "2. čtení",
            "ref": "1 Kor 10,31-11,1",
            "lines": [
                "Napodobujte mne, jako já (napodobuji) Krista.",
                "Čtení z prvního listu svatého apoštola Pavla Korinťanům.",
                "(Bratři!) Ať jíte, ať pijete nebo cokoli jiného děláte, všecko dělejte k Boží oslavě. Nebuďte pohoršením ani židům, ani pohanům, ani Boží církevní obci. Já se také snažím o to, abych ve všem pamatoval na druhé, a nehledím na to, co je prospěšné mně, ale na to, co prospívá všem, aby tak mohli dojít spásy. Napodobujte mne, jako já (napodobuji) Krista."
            ]
        },
        "zpev-pred-evangeliem": {
            "name": "Zpěv před evangeliem – Lk 7,16",
            "type": "Zpěv před evangeliem",
            "ref": "Lk 7,16",
            "lines": [
                "Aleluja. Veliký prorok povstal mezi námi, Bůh navštívil svůj lid! Aleluja."
            ]
        },
        "evangelium": {
            "name": "Evangelium – Mk 1,40-45",
            "type": "Evangelium",
            "ref": "Mk 1,40-45",
            "lines": [
                "Malomocenství od něho odešlo a byl očištěn.",
                "Slova svatého evangelia podle Marka.",
                "K Ježíšovi přišel jeden malomocný a na kolenou ho prosil: „Chceš-li, můžeš mě očistit.“ Ježíš měl s ním soucit. Vztáhl ruku, dotkl se ho a řekl mu: „Chci, buď čistý!“ A hned od něho malomocenství odešlo a byl očištěn. Ježíš ho hned poslal pryč a přísně mu nařídil: „Ne abys někomu o tom říkal! Ale jdi, ukaž se knězi a přines oběť za své očištění, jak nařídil Mojžíš – jim na svědectví.“ On odešel, ale začal to horlivě rozhlašovat a tu událost rozšiřovat, takže (Ježíš) už nemohl veřejně vejít do města, ale zůstával venku na opuštěných místech. Ale přesto k němu chodili (lidé) odevšad."
            ]
        }
    }
}
