{
    "name": "Pondělí po 3. neděli velikonoční",
    "stupen-slaveni": "běžný",
    "color": {
        "cz": "bílá",
        "en": "white"
    },
    "misal": {
        "1-cteni": {
            "name": "1. čtení – Sk 6,8-15",
            "type": "1. čtení",
            "ref": "Sk 6,8-15",
            "lines": [
                "Nemohli obstát před jeho moudrostí a Duchem, který z něho mluvil.",
                "Čtení ze Skutků apoštolů.",
                "Štěpán, plný milosti a síly, dělal mezi lidem veliké divy a znamení. Ale tu zasáhli někteří z tak zvané synagogy propuštěnců s lidmi z Kyrény, Alexandrie, Kilíkie a Asie a začali se přít se Štěpánem. Nemohli však obstát před jeho moudrostí a Duchem, který z něho mluvil. Navedli tedy některé lidi, aby vypovídali: „Slyšeli jsme ho, jak mluví rouhavé řeči proti Mojžíšovi a proti Bohu.“ Tím rozbouřili lid, starší a učitele Zákona. Ti ho pak přepadli a násilím ho přivedli do velerady. Přivedli také křivé svědky a ti vypovídali: „Tenhle člověk neustále vede řeči proti chrámu a proti Zákonu. Tak jsme ho slyšeli, že říkal: `Ježíš Nazaretský rozboří tento chrám a změní ustanovení, která máme od Mojžíše.'„ Všichni, kdo seděli ve veleradě, upřeně se na něho podívali a viděli, že se jeho tvář podobá tváři anděla."
            ]
        },
        "mezizpev": {
            "name": "Mezizpěv – Žl 119,23-24.26-27.29-30",
            "type": "Mezizpěv",
            "ref": "Žl 119,23-24.26-27.29-30",
            "lines": [
                "Blaze těm, kteří kráčejí v zákoně Hospodinově.",
                "Nebo: Aleluja.",
                "I když se knížata ve schůzce proti mně umlouvají,\ntvůj služebník rozjímá o tvých předpisech.\nVždyť tvá přikázání jsou mým potěšením,\ntvé příkazy jsou mými rádci.",
                "Vyjevil jsem své osudy, a vyslyšels mě,\nnauč mě svým příkazům!\nPouč mě o smyslu svých nařízení\na budu rozjímat o tvých divech.",
                "Odvrať mě od cesty lži,\nuštědři mi svůj zákon!\nVyvolil jsem si cestu pravdy,\ndal jsem přednost tvým rozhodnutím."
            ]
        },
        "zpev-pred-evangeliem": {
            "name": "Zpěv před evangeliem – Mt 4,4b",
            "type": "Zpěv před evangeliem",
            "ref": "Mt 4,4b",
            "lines": [
                "Aleluja. Nejen z chleba žije člověk, ale z každého slova, které vychází z Božích úst. Aleluja."
            ]
        },
        "evangelium": {
            "name": "Evangelium – Jan 6,22-29",
            "type": "Evangelium",
            "ref": "Jan 6,22-29",
            "lines": [
                "Neusilujte o pokrm, který pomíjí, ale o pokrm, který zůstává k věčnému životu.",
                "Slova svatého evangelia podle Jana.",
                "Lidé, kteří zůstali na protějším břehu moře, si všimli, že tam byl jenom jediný člun a že Ježíš zároveň se svými učedníky na loď nevstoupil, ale že učedníci odjeli sami. Přijely jiné čluny z Tiberiady blízko k místu, kde lidé jedli chléb, nad kterým Pán vzdal díky. Když zástup viděl, že ani Ježíš, ani jeho učedníci nejsou (na břehu), nasedali do člunů, přijeli do Kafarnaa a hledali Ježíše. Když ho našli na druhé straně moře, zeptali se ho: „Mistře, kdy jsi sem přijel?“ Ježíš jim odpověděl: „Amen, amen, pravím vám: Hledáte mě ne proto, že jste viděli znamení, ale že jste se dosyta najedli z těch chlebů. Neusilujte o pokrm, který pomíjí, ale o pokrm, který zůstává k věčnému životu; ten vám dá Syn člověka. Otec, Bůh, ho osvědčil svou pečetí.“ Zeptali se ho: „Co máme dělat, abychom konali skutky Boží?“ Ježíš jim odpověděl: „To je skutek Boží, abyste věřili v toho, koho on poslal.“"
            ]
        }
    }
}
