{
    "name": "Středa po 6. neděli velikonoční",
    "stupen-slaveni": "běžný",
    "color": {
        "cz": "bílá",
        "en": "white"
    },
    "misal": {
        "1-cteni": {
            "name": "1. čtení – Sk 17,15.22-18,1",
            "type": "1. čtení",
            "ref": "Sk 17,15.22-18,1",
            "lines": [
                "Co vy neznáte, a přece to ctíte, to já vám zvěstuji.",
                "Čtení ze Skutků apoštolů.",
                "Průvodci dovedli Pavla z Beroje do Athén. Odtamtud se pak vrátili a nesli s sebou pro Silu a Timoteje příkaz, aby za ním co nejdřív přišli. Pavel se postavil doprostřed Areopagu a začal mluvit: „Athéňané! Jak pozoruji, jste po každé stránce lidé velmi zbožní. Když jsem totiž procházel a prohlížel vaše posvátná místa, přišel jsem také na jeden oltář s nápisem: `Neznámému bohu'. Co vy tedy neznáte, a přece to ctíte, to já vám zvěstuji. Bůh, který stvořil svět i všechno, co je v něm, jako Pán nebe a země nepřebývá v chrámech, které vystavěly lidské ruce, ani si nedává posluhovat lidskýma rukama, že by něco potřeboval. Vždyť on sám dává všem život, dech i všechno. On stvořil z jednoho člověka celé lidské pokolení a dal mu bydlet všude na zemském povrchu. Předem stanovil časová období a položil hranice lidským sídlům. A to proto, aby hledali Boha, zdali by se ho snad nějak mohli dohmatat a nalézt ho. Vždyť od nikoho z nás není daleko. V něm totiž žijeme, hýbáme se a jsme. Tak to vyjádřili i někteří z vašich básníků: `Jsme dokonce z jeho rodu.' Když jsme tedy z Božího rodu, nemůžeme se přece domnívat, že božství je něco takového jako výrobek ze zlata nebo ze stříbra nebo z kamene. To je přece výtvor lidského umění a důmyslu. Bůh však zamhouřil oči nad touto dobou nevědomosti. Teď hlásá lidem, aby se všichni všude obrátili, protože stanovil den, kdy bude podle spravedlnosti soudit svět skrze muže, kterého k tomu určil. A poskytl všem důkaz pro to, aby uvěřili, tím že ho vzkřísil z mrtvých.“ Jakmile uslyšeli o vzkříšení mrtvých, jedni se tomu vysmívali a druzí řekli: „Poslechneme si tě o tom až někdy jindy.“ Tak od nich Pavel odešel. Ale někteří se ho přidrželi a přijali víru; mezi nimi člen Areopagu Diviš, pak žena, která se jmenovala Damaris, a s nimi jiní. Potom Pavel odešel z Athén a přišel do Korinta."
            ]
        },
        "mezizpev": {
            "name": "Mezizpěv – Žl 148,1-2.11-12.13-14a.14bc",
            "type": "Mezizpěv",
            "ref": "Žl 148,1-2.11-12.13-14a.14bc",
            "lines": [
                "Nebe i země jsou plny tvé slávy.",
                "Nebo: Aleluja.",
                "Chvalte Hospodina z nebes,\nchvalte ho na výsostech!\nChvalte ho, všichni jeho andělé,\nchvalte ho, všechny jeho zástupy!",
                "Králové země a všechny národy,\nknížata a všichni soudcové země,\njinoši a s nimi panny,\nstarci spolu s dětmi.",
                "Ať chválí jméno Hospodinovo,\nneboť jen jeho jméno je vznešené.\nJeho velebnost převyšuje zemi i nebe\na velikou moc dal svému lidu.",
                "Chválou je všem svým svatým,\nsynům Izraele, lidu, který je mu blízký."
            ]
        },
        "zpev-pred-evangeliem": {
            "name": "Zpěv před evangeliem – srov. Jan 14,16",
            "type": "Zpěv před evangeliem",
            "ref": "srov. Jan 14,16",
            "lines": [
                "Aleluja. Otec vám dá jiného Přímluvce, aby s vámi zůstal navždy. Aleluja."
            ]
        },
        "evangelium": {
            "name": "Evangelium – Jan 16,12-15",
            "type": "Evangelium",
            "ref": "Jan 16,12-15",
            "lines": [
                "Duch pravdy vás uvede do celé pravdy.",
                "Slova svatého evangelia podle Jana.",
                "Ježíš řekl svým učedníkům: „Měl bych vám ještě mnoho jiného říci, ale teď byste to nemohli snést. Ale až přijde on, Duch pravdy, uvede vás do celé pravdy. On totiž nebude mluvit sám ze sebe, ale bude mluvit to, co uslyší, a oznámí vám, co má přijít. On mě oslaví, protože z mého vezme a vám to oznámí. Všechno, co má Otec, je moje; proto jsem řekl, že z mého vezme a vám to oznámí.“"
            ]
        }
    }
}
