{
    "name": "Čtvrtek po 2. neděli postní",
    "stupen-slaveni": "běžný",
    "color": {
        "cz": "fialová",
        "en": "deep-purple"
    },
    "misal": {
        "1-cteni": {
            "name": "1. čtení – Jer 17,5-10",
            "type": "1. čtení",
            "ref": "Jer 17,5-10",
            "lines": [
                "Prokletý člověk, který spoléhá na člověka; požehnaný, který doufá v Hospodina.",
                "Čtení z knihy proroka Jeremiáše.",
                "Toto praví Hospodin: „Prokletý člověk, který spoléhá na člověka, kdo za svou oporu pokládá smrtelníka, svým srdcem odstupuje od Hospodina! Je jako jalovec na pustině: nevidí, že by přišel déšť, svůj domov má v suchopárné poušti, v solném kraji, kde nelze bydlet. Požehnaný člověk, který doufá v Hospodina, jehož oporou je Hospodin! Je jako strom, který je zasazen u vod, který své kořeny vyhání k potoku; když přijde vedro, nestrachuje se, jeho listí zůstává zelené, ani v suchém roku nemá starosti, nepřestává nést ovoce. Záludné je srdce, víc než vše jiné, stěží polepšitelné, kdo je pozná? Já, Hospodin, zpytuji srdce a zkouším ledví, abych dal každému podle jeho chování, podle ovoce jeho skutků.“"
            ]
        },
        "mezizpev": {
            "name": "Mezizpěv – Žl 1,1-2.3.4+6",
            "type": "Mezizpěv",
            "ref": "Žl 1,1-2.3.4+6",
            "lines": [
                "Blaze tomu, kdo svou naději vložil v Hospodina.",
                "Blaze tomu, kdo nechodí, jak mu radí bezbožní,\nnepostává na cestě, kudy chodí hříšní,\na nezasedá ve shromáždění rouhačů.\nAle má zalíbení v Hospodinově zákoně\na o jeho zákoně přemítá dnem i nocí.",
                "Podobá se tak stromu zasazenému u vodních proudů,\nve svůj čas přináší ovoce,\nlistí mu nevadne\na daří se mu vše, co koná.",
                "Jinak je tomu s bezbožnými, zcela jinak:\njsou jako pleva rozvátá větrem,\nvždyť Hospodin dbá o cestu spravedlivých,\nale cesta bezbožných skončí záhubou."
            ]
        },
        "zpev-pred-evangeliem": {
            "name": "Zpěv před evangeliem – srov. Lk 8,15",
            "type": "Zpěv před evangeliem",
            "ref": "srov. Lk 8,15",
            "lines": [
                "Blahoslavení, kteří slovo Páně uchovávají v dobrém a upřímném srdci a s vytrvalostí přinášejí užitek."
            ]
        },
        "evangelium": {
            "name": "Evangelium – Lk 16,19-31",
            "type": "Evangelium",
            "ref": "Lk 16,19-31",
            "lines": [
                "Ty ses měl dobře už zaživa, Lazar naproti tomu špatně; nyní se tu on raduje, a ty zakoušíš muka.",
                "Slova svatého evangelia podle Lukáše.",
                "Ježíš řekl farizeům: „Byl jeden bohatý člověk, oblékal se do šarlatu a kmentu a každý den pořádal skvělou hostinu. U jeho dveří léhal jeden žebrák – jmenoval se Lazar – plný vředů a rád by utišil hlad aspoň z toho, co padalo z boháčova stolu; a (ještě k tomu) přicházeli psi a lízali mu vředy. Žebrák umřel a andělé ho odnesli do Abrahámova náručí. Pak umřel i boháč a byl pohřben. V pekle v mukách zdvihl oči a viděl zdálky Abraháma a v jeho náručí Lazara. A zvolal: `Otče Abraháme, slituj se nade mnou a pošli Lazara, ať omočí aspoň kousek prstu ve vodě a ovlaží mi jazyk, protože zakouším muka v tomto plamenu.' Abrahám však odpověděl: `Synu, uvědom si, že ty ses měl dobře už zaživa, Lazar naproti tomu špatně. A nyní se tu on raduje, a ty zakoušíš muka. A k tomu ke všemu zeje mezi námi a vámi veliká propast, takže nikdo nemůže přejít odtud k vám, i kdyby chtěl, ani se dostat od vás k nám.' (Boháč) řekl: `Prosím tě tedy, otče, pošli ho do mého otcovského domu. Mám totiž pět bratrů, ať je varuje, aby se také oni nedostali do tohoto místa muk.' Abrahám odpověděl: `Mají Mojžíše a Proroky, ať je uposlechnou!' On však odporoval: `Ne, otče Abraháme! Ale když k nim někdo přijde z mrtvých, pak se obrátí.' Odpověděl mu: `Jestliže neposlouchají Mojžíše a Proroky, nedají se přesvědčit, ani kdyby někdo vstal z mrtvých.'“"
            ]
        }
    }
}
