{
    "name": "11. NEDĚLE V MEZIDOBÍ",
    "stupen-slaveni": "běžný",
    "color": {
        "cz": "zelená",
        "en": "green"
    },
    "misal": {
        "1-cteni": {
            "name": "1. čtení – Ez 17,22-24",
            "type": "1. čtení",
            "ref": "Ez 17,22-24",
            "lines": [
                "Povyšuji nízký strom.",
                "Čtení z knihy proroka Ezechiela.",
                "Tak praví Pán, Hospodin: \"Já vezmu z vrcholku vysokého cedru slabou větévku, ulomím ji z jeho nejvyšších výhonků a zasadím ji sám na vysoko vyčnívající hoře. Na vysoké Izraelově hoře ji zasadím, vyžene větve, vyraší výhonky,ponese plody, stane se nádherným cedrem. Pod ním budou hnízdit ptáci všeho druhu, budou hnízdit ve stínu jeho ratolestí. Poznají pak všechny polní stromy, že já jsem Hospodin: ponižuji strom vysoký, povyšuji strom nízký, dávám uschnout stromu zelenému, vypučet stromu suchému. Já, Hospodin, jsem to řekl a učinil.\","
            ]
        },
        "mezizpev-zl-92-2-3-13-14-15-16": {
            "name": "Mezizpěv –Žl 92,2-3.13-14.15-16",
            "type": "Mezizpěv –Žl 92,2-3.13-14.15-16",
            "ref": "",
            "lines": [
                "Dobré je chválit Hospodina.",
                "Dobré je chválit Hospodina,\nopěvovat tvé jméno, Svrchovaný!\nZrána hlásat tvé milosrdenství\na za noci tvou věrnost.",
                "Spravedlivý pokvete jak palma,\nporoste jak cedr na Libanonu.\nKdo jsou zasazeni v domě Hospodinově,\npokvetou v nádvořích našeho Boha.",
                "Ještě ve stáří budou přinášet užitek,\nzůstanou šťavnatí a svěží,\naby hlásali, jak spravedlivý je Hospodin,\nmá skála, v němž není nepravosti."
            ]
        },
        "2-cteni": {
            "name": "2. čtení – 2 Kor 5,6-10",
            "type": "2. čtení",
            "ref": "2 Kor 5,6-10",
            "lines": [
                "Stůj co stůj usilujeme o to, abychom se líbili Pánu.",
                "Čtení z druhého listu svatého apoštola Pavla Korinťanům.",
                "Bratři! Jsme ustavičně plni důvěry. Víme, že dokud jsme doma v tomto těle, jsme jako vyhnanci v cizině, daleko od Pána. (To proto, že) v nynějším stavu (v Boha jen) věříme, ale dosud ho nevidíme. Jsme však plni důvěry a chtěli bychom raději opustit domov tělesný a odebrat se do domova k Pánu. A proto stůj co stůj usilujme o to, abychom se mu líbili, ať už v domově (těla) zůstáváme, nebo se z něho odebíráme. My všichni se přece musíme objevit před Kristovým soudem, aby každý dostal odplatu za to, co za života udělal dobrého nebo špatného."
            ]
        },
        "zpev-pred-evangeliem": {
            "name": "Zpěv před evangeliem",
            "type": "Zpěv před evangeliem",
            "ref": "",
            "lines": [
                "Aleluja. Semeno je Boží slovo, rozsévač je Kristus. Každý, kdo ho nalezne, vytrvá navěky. Aleluja."
            ]
        },
        "evangelium": {
            "name": "Evangelium – Mk 4,26-34",
            "type": "Evangelium",
            "ref": "Mk 4,26-34",
            "lines": [
                "Je menší než všechna semena a přerůstá všechny jiné zahradní rostliny.",
                "Slova svatého evangelia podle Marka.",
                "Ježíš řekl zástupu: \"Boží království je podobné člověku, který zaseje do země semeno; ať spí, nebo je vzhůru, ve dne i v noci, semeno klíčí a roste, on ani neví jak. Země sama od sebe přináší plody: napřed stéblo, potom klas, pak zralé zrno v klasu. Když pak se ukáže zralý plod, hned (člověk) vezme srp, protože nastaly žně.\" Řekl také: \"K čemu přirovnáme Boží království nebo jakým podobenstvím ho znázorníme? Je jako hořčičné zrnko: Když se zasévá do země, je menší než všechna semena na zemi, ale když je zaseto, vzejde a přerůstá všechny jiné zahradní rostliny; vyžene tak velké větve, že ptáci mohou hnízdit v jeho stínu.\" Mnoha takovými podobenstvími jim hlásal (Boží) slovo, jak to mohli pochopit. Bez podobenství k nim nemluvil. Když však byl se svými učedníky sám, všechno vysvětloval."
            ]
        }
    }
}
