{
    "name": "Úterý Svatého týdne",
    "stupen-slaveni": "běžný",
    "color": {
        "cz": "fialová",
        "en": "deep-purple"
    },
    "misal": {
        "1-cteni": {
            "name": "1. čtení – Iz 49,1-6",
            "type": "1. čtení",
            "ref": "Iz 49,1-6",
            "lines": [
                "Proto tě dám národům jako světlo, aby se má spása rozšířila až do končin země.",
                "Čtení z knihy proroka Izaiáše.",
                "Slyšte mě, ostrovy, dejte pozor, národy, které jste v dáli! Hospodin mě povolal od matčina lůna, již v mateřském životě mě nazval jménem. Z mých úst udělal nabroušený meč, ve stínu své ruky mě ukryl. Ukoval mě v zaostřený šíp, ve svém toulci mě schoval. Řekl mi: „Jsi mým Služebníkem, Izraelem, proslavím se tebou.“ Já však jsem pravil: „Nadarmo jsem se namáhal, naprázdno, zbytečně jsem strávil svou sílu. Mé právo je však jistě u Hospodina a má mzda u mého Boha.“ Avšak nyní praví Hospodin, který si ze mě utvořil Služebníka již v matčině lůně, abych zas k němu přivedl Jakuba, abych mu shromáždil Izraele. Tak jsem ve cti u Hospodina, (protože) Bůh můj je mou silou. Řekl mi (tedy): „Nestačí, že jsi mým Služebníkem, abys obnovil Jakubovy kmeny a zbytky Izraele přivedl nazpět. Proto tě dám národům jako světlo, aby se má spása rozšířila až do končin země.“"
            ]
        },
        "mezizpev": {
            "name": "Mezizpěv – Žl 71,1-2.3-4a.5-6ab.15+17",
            "type": "Mezizpěv",
            "ref": "Žl 71,1-2.3-4a.5-6ab.15+17",
            "lines": [
                "Má ústa budou vyprávět o tvé spravedlnosti.",
                "K tobě se utíkám, Hospodine,\nnechť nejsem zahanben navěky!\nVe své spravedlnosti mě vyprosť a vysvoboď,\nnakloň ke mně svůj sluch a zachraň mě!",
                "Buď mou ochrannou skálou,\npevností k mé záchraně,\nneboť tys moje skála a tvrz.\nBože můj, vysvoboď mě z ruky bezbožného!",
                "Vždyť tys má naděje, Pane,\nmá důvěra od mého mládí, Hospodine!\nV tobě jsem měl oporu od matčina lůna,\nod klína mé matky byls mým ochráncem.",
                "Má ústa budou vyprávět o tvé spravedlnosti,\npo celý den budu vyprávět o tvé pomoci,\nneboť ji nemohu spočítat.\nBože, učils mě od mého mládí,\naž dosud hlásám tvé podivuhodné činy."
            ]
        },
        "zpev-pred-evangeliem": {
            "name": "Zpěv před evangeliem",
            "type": "Zpěv před evangeliem",
            "ref": "",
            "lines": [
                "Buď zdráv, náš Králi! Poslouchal jsi Otce, byls veden na kříž jako tichý beránek k zabití."
            ]
        },
        "evangelium": {
            "name": "Evangelium – Jan 13,21-33.36-38",
            "type": "Evangelium",
            "ref": "Jan 13,21-33.36-38",
            "lines": [
                "Jeden z vás mě zradí ... Dříve než kohout zakokrhá, třikrát mě zapřeš.",
                "Slova svatého evangelia podle Jana.",
                "Když Ježíš seděl se svými učedníky, v duchu se zachvěl a s důrazem prohlásil: „Amen, amen, pravím vám: Jeden z vás mě zradí.“ Učedníci pohlíželi jeden na druhého v rozpacích, o kom to říká. Jeden z jeho učedníků ležel na Ježíšových prsou, ten, kterého Ježíš miloval. Šimon Petr na něj kývl a vybídl ho: „Zeptej se, kdo to je, o kom to říká.“ On se naklonil k Ježíšovým prsům a zeptal se ho: „Pane, kdo je to?“ Ježíš odpověděl: „Ten je to, komu podám omočené sousto.“ A vzal sousto, omočil ho a podal Jidášovi, synu Šimona Iškariotského. Po tom soustu vstoupil do něho satan. Ježíš mu pak řekl: „Co chceš udělat, udělej rychle.“ Z ostatních, kteří byli u stolu, nikdo nerozuměl, proč mu to řekl. Poněvadž Jidáš spravoval pokladnu, mysleli někteří, že mu Ježíš nařídil: „Nakup, čeho potřebujeme na svátky“, nebo aby dal něco chudým. On pak vzal sousto a hned odešel. Byla noc. Když (Jidáš) odešel, Ježíš řekl: „Nyní je oslaven Syn člověka a Bůh je oslaven v něm. Je-li Bůh v něm oslaven, oslaví Bůh i jeho v sobě; ano, hned ho oslaví. Dítky, jen krátký čas jsem s vámi. Budete mě hledat, ale jak jsem řekl židům, říkám teď i vám: Kam jdu já, tam vy přijít nemůžete. Šimon Petr se ho zeptal: „Pane, kam jdeš?“ Ježíš odpověděl: „Kam já jdu, tam za mnou teď nemůžeš jít; půjdeš však za mnou později.“ Petr mu řekl: „Pane, proč nemohu jít za tebou už teď? Svůj život za tebe položím!“ Ježíš mu odpověděl: „Svůj život za mne položíš? Amen, amen, pravím tobě: Dříve než kohout zakokrhá, třikrát mě zapřeš.“"
            ]
        }
    }
}
