{
    "name": "Úterý po 6. neděli velikonoční",
    "stupen-slaveni": "běžný",
    "color": {
        "cz": "bílá",
        "en": "white"
    },
    "misal": {
        "1-cteni": {
            "name": "1. čtení – Sk 16,22-34",
            "type": "1. čtení",
            "ref": "Sk 16,22-34",
            "lines": [
                "Uvěř v Pána Ježíše, a dojdeš spásy ty i celý tvůj dům.",
                "Čtení ze Skutků apoštolů.",
                "Lid (z města Filip) se sběhl proti Pavlovi a Silovi. Úředníci ",
                "z nich dali strhat šaty a nařídili bít je pruty. Když pak jim vysázeli hodně ran, dali je zavřít do vězení a žalářníkovi nařídili, aby je dobře hlídal. Když dostal takový rozkaz, dal je do nejhlubší kobky a pro jistotu jim sevřel nohy do klády. Kolem půlnoci se Pavel a Silas modlili a zpívali Bohu chvalozpěvy. (Ostatní) vězni je poslouchali. Náhle však nastalo silné zemětřesení, takže se zachvěly základy žaláře. A ihned se rozevřely všechny dveře a všem se uvolnila pouta. Když se žalářník probral ze spánku a viděl, že dveře vězení jsou dokořán, vytasil meč a chtěl si vzít život, neboť myslel, že vězni utekli. Ale Pavel zavolal silným hlasem: „Nedělej si nic zlého! Vždyť jsme tady všichni!“ Žalářník si dal tedy přinést světlo, vběhl dovnitř, celý se třásl a padl na kolena před Pavlem a Silou. Pak je vyvedl ven a zeptal se: „Pánové, co mám dělat, abych došel spásy?“ Oni odpověděli: „Uvěř v Pána Ježíše, a dojdeš spásy ty i celý tvůj dům.“ A začali hlásat slovo Boží jemu i všem lidem z jeho domu. Ještě v noci v tu hodinu je vzal s sebou, vymyl jim krvavé rány a hned se dal pokřtít on i všichni jeho lidé. Pak je uvedl do svého bytu, dal prostřít stůl a jásal nad tím, že on i celý jeho dům uvěřil v Boha."
            ]
        },
        "mezizpev": {
            "name": "Mezizpěv – Žl 138,1-2a.2bc-3.7c-8",
            "type": "Mezizpěv",
            "ref": "Žl 138,1-2a.2bc-3.7c-8",
            "lines": [
                "Zachraňuje mě tvá pravice, Hospodine.",
                "Nebo: Aleluja.",
                "Chci tě chválit, Hospodine, celým svým srdcem,\nžes vyslyšel slova mých úst.\nBudu ti hrát před anděly,\nvrhnu se na tvář směrem k tvému svatému chrámu.",
                "Slavit budu tvé jméno pro tvou dobrotu a tvou věrnost,\nneboť nade vše jsi zvelebil své jméno a své zaslíbení.\nKdyž jsem volal, vyslyšels mě,\nv mé duši jsi rozhojnil sílu.",
                "Zachraňuje mě tvá pravice,\nHospodin pro mě dokončí, co začal.\nHospodine, tvá dobrota trvá navěky,\ndílo svých rukou neopouštěj!"
            ]
        },
        "zpev-pred-evangeliem": {
            "name": "Zpěv před evangeliem – srov. Jan 16,7.13",
            "type": "Zpěv před evangeliem",
            "ref": "srov. Jan 16,7.13",
            "lines": [
                "Aleluja. Pošlu k vám Ducha pravdy, praví Pán; on vás uvede do celé pravdy. Aleluja."
            ]
        },
        "evangelium": {
            "name": "Evangelium – Jan 16,5-11",
            "type": "Evangelium",
            "ref": "Jan 16,5-11",
            "lines": [
                "Jestliže neodejdu, Přímluvce k vám nepřijde.",
                "Slova svatého evangelia podle Jana.",
                "Ježíš řekl svým učedníkům: „Nyní jdu k tomu, který mě poslal, a nikdo z vás se mě neptá: `Kam jdeš?' Spíše je vaše srdce plné zármutku, že jsem vám to pověděl. Ale já vám říkám pravdu: Je to pro vás dobré, abych já odešel. Jestliže totiž neodejdu, Přímluvce k vám nepřijde. Odejdu-li však, pošlu ho k vám. A on, až přijde, usvědčí svět ze hříchu, ze spravedlnosti a ze soudu. Ze hříchu: že ve mne nevěří; ze spravedlnosti: že odcházím k Otci a už mě neuvidíte; ze soudu: že vládce tohoto světa je už odsouzen.“"
            ]
        }
    }
}
