{
    "name": "Pátek po 3. neděli postní",
    "stupen-slaveni": "běžný",
    "color": {
        "cz": "fialová",
        "en": "deep-purple"
    },
    "misal": {
        "1-cteni": {
            "name": "1. čtení – Oz 14,2-10",
            "type": "1. čtení",
            "ref": "Oz 14,2-10",
            "lines": [
                "Nebudeme již říkat: `Bohové naši!' dílu svých rukou.",
                "Čtení z knihy proroka Ozeáše.",
                "Toto praví Hospodin: „Vrať se, Izraeli, k Hospodinu, svému Bohu, neboť jsi padl pro svou nepravost. Vezměte s sebou slova (modlitby), a obraťte se k Hospodinu; řekněte mu: Odpusť každou nepravost a laskavě přijmi, když ti budeme obětovat plod svých rtů. Asýrie nás nezachrání, na koně nevsedneme, nebudeme již říkat: `Bohové naši!' dílu svých rukou, poněvadž sirotek najde u tebe slitování. Zhojím jejich zradu, milovat je budu velkodušně, neboť můj hněv se od nich odvrátí. Rosou budu Izraeli, vykvete jak lilie a jak Libanon vyžene své kořeny. Rozprostřou se jeho ratolesti, jak oliva se bude skvít, jak Libanon bude vonět. Vrátí se a v mém stínu budou bydlet, obilí budou pěstovat, vyraší jak réva, budou mít věhlas jak libanonské víno. K čemu budou Efraimu modly? Vyslyším ho, shlédnu na něj, jsem zeleným cypřišem, ode mě je tvůj plod. Kdo je moudrý, kéž tomu porozumí, kdo má důvtip, ať to pozná! Přímé jsou Hospodinovy cesty, spravedliví po nich kráčejí, bezbožní však na nich padnou.“"
            ]
        },
        "mezizpev": {
            "name": "Mezizpěv – Žl 81,6c-8a.8bc-9.10-11ab.14+17",
            "type": "Mezizpěv",
            "ref": "Žl 81,6c-8a.8bc-9.10-11ab.14+17",
            "lines": [
                "Já jsem Hospodin, tvůj Bůh, slyš můj hlas!",
                "Slyšel jsem neznámý mně hlas:\nZbavil jsem jeho šíji břemena,\nz jeho rukou jsem vzal koš robotníka.\nV soužení jsi volal, a osvobodil jsem tě.",
                "Odpověděl jsem ti z hřímajícího mraku,\nu vody v Meribě jsem tě zkoušel.\nSlyš, můj národe, chci tě napomenout,\nIzraeli, kéž bys mě poslouchal!",
                "Nesmíš mít boha jiného,\nnesmíš se klanět bohu cizímu!\nJá jsem Hospodin, tvůj Bůh,\njá jsem tě vyvedl z egyptské země!",
                "Kéž by mě můj národ slyšel,\nkéž by Izrael kráčel po mých cestách!\nŽivil bych jej jadrnou pšenicí,\nmedem ze skály bych jej sytil."
            ]
        },
        "zpev-pred-evangeliem": {
            "name": "Zpěv před evangeliem – Mt 4,17",
            "type": "Zpěv před evangeliem",
            "ref": "Mt 4,17",
            "lines": [
                "Obraťte se, praví Pán, neboť se přiblížilo nebeské království."
            ]
        },
        "evangelium": {
            "name": "Evangelium – Mk 12,28b-34",
            "type": "Evangelium",
            "ref": "Mk 12,28b-34",
            "lines": [
                "Hospodin, náš Bůh, je jediný Pán; miluj ho!",
                "Slova svatého evangelia podle Marka.",
                "Jeden z učitelů Zákona přistoupil k Ježíšovi a zeptal se ho: „Které přikázání je první ze všech?“ Ježíš odpověděl: „První je toto: `Slyš, Izraeli! Hospodin, náš Bůh, je jediný Pán. Proto miluj Pána, svého Boha, celým svým srdcem, celou svou duší, celou svou myslí a celou svou silou.' Druhé je toto: `Miluj svého bližního jako sám sebe.' Žádné jiné přikázání není větší než tato.“ Učitel Zákona mu na to řekl: „Správně, Mistře, podle pravdy jsi řekl, že on je jediný a není jiného kromě něho a milovat ho celým srdcem, celým rozumem a celou silou a milovat bližního jako sám sebe je víc než všechny oběti a dary.“ Když Ježíš viděl, že (učitel Zákona) odpověděl rozumně, řekl mu: „Nejsi daleko od Božího království.“ A nikdo se už neodvážil dát mu nějakou otázku."
            ]
        }
    }
}
