{
    "name": "Čtvrtek po 5. neděli v mezidobí",
    "stupen-slaveni": "běžný",
    "color": {
        "cz": "zelená",
        "en": "green"
    },
    "misal": {
        "1-cteni": {
            "name": "1. čtení – Gn 2,18-25",
            "type": "1. čtení",
            "ref": "Gn 2,18-25",
            "lines": [
                "Přivedl ženu k Adamovi. A budou jeden člověk.",
                "Čtení z první knihy Mojžíšovy.",
                "Hospodin Bůh řekl: „Není dobré, že člověk je sám. Udělám mu pomocníka, který by se k němu hodil.“ Hospodin Bůh uhnětl z hlíny všechnu divokou zvěř a všechno nebeské ptactvo a přivedl (je) k člověku, aby viděl, jaké jim dá jméno: takové mělo být jejich jméno, jak by všechny živočichy pojmenoval. A člověk dal jméno všem krotkým zvířatům, nebeskému ptactvu a veškeré divoké zvěři, ale pro člověka se nenašel pomocník, který by se k němu hodil. Tu Hospodin Bůh seslal na člověka hluboký spánek, a když usnul, vzal jedno z jeho žeber a to místo uzavřel masem. Hospodin Bůh pak ze žebra, které vzal z člověka, vytvořil ženu a přivedl ji k člověku. Ten zvolal: „To je konečně kost z mých kostí a tělo z mého těla! Bude se nazývat manželkou, neboť z manžela byla vzata.“ Proto muž opustí otce i matku a přidrží se své ženy a budou jeden člověk. Oba dva byli nazí, člověk i jeho žena, ale nestyděli se."
            ]
        },
        "mezizpev": {
            "name": "Mezizpěv – Žl 128,1-2.3.4-5",
            "type": "Mezizpěv",
            "ref": "Žl 128,1-2.3.4-5",
            "lines": [
                "Blaze každému, kdo se bojí Hospodina.",
                "Blaze každému, kdo se bojí Hospodina,\nkdo kráčí po jeho cestách.\nBudeš jísti z výtěžku svých rukou,\nbude ti blaze a dobře.",
                "Tvá manželka bude jako plodná réva\nuvnitř tvého domu.\nTvoji synové jako výhonky oliv\nkolem tvého stolu.",
                "Hle, tak bývá požehnán muž,\nkterý se bojí Hospodina.\nAť ti Hospodin požehná ze Siónu,\nabys viděl štěstí Jeruzaléma po všechny dny svého života."
            ]
        },
        "zpev-pred-evangeliem": {
            "name": "Zpěv před evangeliem – Jak 1,21bc",
            "type": "Zpěv před evangeliem",
            "ref": "Jak 1,21bc",
            "lines": [
                "Aleluja. Buďte vnímaví pro slovo, které do vás bylo vloženo jako semeno a může zachránit vaši duši. Aleluja."
            ]
        },
        "evangelium": {
            "name": "Evangelium – Mk 7,24-30",
            "type": "Evangelium",
            "ref": "Mk 7,24-30",
            "lines": [
                "Psíci se živí pod stolem kousky po dětech.",
                "Slova svatého evangelia podle Marka.",
                "Ježíš se vydal na cestu do tyrského kraje. Vešel do jednoho domu a nechtěl, aby to někdo věděl, ale nemohlo se to utajit. Hned o něm uslyšela nějaká žena, jejíž dcera byla posedlá nečistým duchem. Přišla a padla mu k nohám. Byla to pohanka, rodem Syroféničanka, a prosila ho, aby vyhnal zlého ducha z její dcery. Řekl jí: „Nech najíst napřed děti! Není přece správné vzít chléb dětem a hodit ho psíkům.“ Ale ona mu odpověděla: „Ovšem, Pane, jenže i psíci se živí pod stolem kousky po dětech.“ Nato jí řekl: „Že jsi to řekla, jdi, zlý duch vyšel z tvé dcery.“ Žena odešla domů a nalezla dítě ležet na lůžku a zlý duch byl pryč."
            ]
        }
    }
}
