{
    "name": "6. neděle velikonoční",
    "stupen-slaveni": "běžný",
    "color": {
        "cz": "bílá",
        "en": "white"
    },
    "misal": {
        "1-cteni": {
            "name": "1. čtení – Sk 10,25-26.34-35.44-48",
            "type": "1. čtení",
            "ref": "Sk 10,25-26.34-35.44-48",
            "lines": [
                "I na pohany byl vylit dar Ducha Svatého.",
                "Čtení ze Skutků apoštolů.",
                "Když Petr přišel do Césareje, Kornélius mu šel vstříc a padl mu v hluboké úctě k nohám. Ale Petr ho zvedl se slovy: „Vstaň! Vždyť i já jsem jen člověk.“ Tu se Petr ujal slova a promluvil: „Teď opravdu chápu, že Bůh nikomu nestraní, ale v každém národě je mu milý ten, kdo se ho bojí a dělá, co je správné.“ Když ještě Petr mluvil, sestoupil Duch Svatý na všechny, kdo tu řeč poslouchali. A žasli věřící obrácení ze židovství, kteří přišli s Petrem, že i na pohany byl vylit dar Ducha Svatého. Slyšeli totiž, jak mluví (cizími) jazyky a velebí Boha. Tehdy Petr řekl: „Může někdo odpírat křestní vodu těm, kteří jako my přijali Ducha Svatého?“ Pak rozkázal, aby je pokřtili ve jménu Ježíše Krista. Potom ho prosili, aby (u nich) zůstal ještě několik dní."
            ]
        },
        "mezizpev": {
            "name": "Mezizpěv – Žl 98,1.2-3ab.3cd-4",
            "type": "Mezizpěv",
            "ref": "Žl 98,1.2-3ab.3cd-4",
            "lines": [
                "Hospodin zjevil svou spásu před zraky pohanů.",
                "Nebo: Aleluja.",
                "Zpívejte Hospodinu píseň novou,\nneboť učinil podivuhodné věci.\nVítězství je dílem jeho pravice,\njeho svatého ramene.",
                "Hospodin uvedl ve známost svou spásu,\npřed zraky pohanů zjevil svou spravedlnost.\nRozpomenul se na svou dobrotu a věrnost\nIzraelovu domu.",
                "Všechny končiny země uzřely\nspásu našeho Boha.\nJásejte Hospodinu, všechny země,\nradujte se, plesejte a hrejte!"
            ]
        },
        "2-cteni": {
            "name": "2. čtení – 1 Jan 4,7-10",
            "type": "2. čtení",
            "ref": "1 Jan 4,7-10",
            "lines": [
                "Bůh je láska.",
                "Čtení z prvního listu svatého apoštola Jana.",
                "Milovaní, milujme se navzájem, protože láska je z Boha, a každý, kdo miluje, je zrozen z Boha a poznává Boha. Kdo nemiluje, Boha nepoznal, protože Bůh je láska. V tom se ukázala Boží láska k nám, že Bůh poslal na svět svého jednorozeného Syna, abychom měli život skrze něho. V tom záleží láska: ne že my jsme milovali Boha, ale že on si zamiloval nás a poslal svého Syna jako smírnou oběť za naše hříchy."
            ]
        },
        "zpev-pred-evangeliem": {
            "name": "Zpěv před evangeliem – Jan 14,23",
            "type": "Zpěv před evangeliem",
            "ref": "Jan 14,23",
            "lines": [
                "Aleluja. Kdo mě miluje, bude zachovávat mé slovo, praví Pán, a můj Otec ho bude milovat a přijdeme k němu. Aleluja."
            ]
        },
        "evangelium": {
            "name": "Evangelium – Jan 15,9-17",
            "type": "Evangelium",
            "ref": "Jan 15,9-17",
            "lines": [
                "Nikdo nemá větší lásku než ten, kdo za své přátele položí život.",
                "Slova svatého evangelia podle Jana.",
                "Ježíš řekl svým učedníkům: „Jako Otec miloval mne, tak já jsem miloval vás. Zůstaňte v mé lásce. Zachováte-li moje přikázání, zůstanete v mé lásce, jako jsem já zachovával přikázání svého Otce a zůstávám v jeho lásce. To jsem k vám mluvil, aby moje radost byla ve vás a aby se vaše radost naplnila. To je mé přikázání: Milujte se navzájem, jak jsem já miloval vás. Nikdo nemá větší lásku než ten, kdo za své přátele položí svůj život. Vy jste moji přátelé, když děláte, co já vám ukládám. Už vás nenazývám služebníky, protože služebník neví, co dělá jeho pán. Nazval jsem vás přáteli, protože vám jsem oznámil všechno, co jsem slyšel od svého Otce. Ne vy jste si vyvolili mne, ale já jsem vyvolil vás a určil jsem vás k tomu, abyste šli a přinášeli užitek a váš užitek aby byl trvalý. Potom vám Otec dá všechno, oč ho budete prosit ve jménu mém. To vám přikazuji: Milujte se navzájem!“"
            ]
        }
    }
}
