{
    "name": "Čtvrtek po Popeleční středě",
    "stupen-slaveni": "běžný",
    "color": {
        "cz": "fialová",
        "en": "deep-purple"
    },
    "misal": {
        "1-cteni": {
            "name": "1. čtení – Dt 30,15-20",
            "type": "1. čtení",
            "ref": "Dt 30,15-20",
            "lines": [
                "Hle, předkládám vám dnes požehnání nebo kletbu (Dt 11,26).",
                "Čtení z páté knihy Mojžíšovy.",
                "Mojžíš pravil lidu: „Hleď, předkládám ti dnes život a štěstí, smrt i neštěstí. Jestliže budeš poslouchat přikázání Hospodina, svého Boha, která já ti dnes přikazuji, a budeš milovat Hospodina, svého Boha, budeš-li chodit po jeho cestách a zachováš-li jeho přikázání, nařízení a ustanovení, budeš žít a rozmnožíš se a Hospodin, tvůj Bůh, ti požehná na zemi, do níž přicházíš, abys ji obsadil. Když se však tvé srdce obrátí a nebudeš poslouchat, dáš-li se svést, aby ses klaněl jiným bohům a ctil je, oznamuji vám dnes, že jistě zahynete a nebudete žít dlouho na zemi, kterou se chystáte obsadit, až přejdete Jordán. Nebe a zemi beru si dnes proti vám za svědka: Předkládám ti život, nebo smrt, požehnání, nebo kletbu. Vyvol si život, abys žil ty a tvoje potomstvo. Miluj Hospodina, svého Boha, poslouchej jeho hlas a lni k němu, neboť jen tak budeš žít a dlouho zůstaneš na zemi, o níž přísahal Hospodin, že ji dá tvým otcům Abrahámovi, Izákovi a Jakubovi.“"
            ]
        },
        "mezizpev": {
            "name": "Mezizpěv – Žl 1,1-2.3.4+6",
            "type": "Mezizpěv",
            "ref": "Žl 1,1-2.3.4+6",
            "lines": [
                "Blaze tomu, kdo svou naději vložil v Hospodina.",
                "Blaze tomu, kdo nechodí, jak mu radí bezbožní,\nnepostává na cestě, kudy chodí hříšní,\na nezasedá ve shromáždění rouhačů,\nale má zalíbení v Hospodinově zákoně -a o jeho zákoně přemítá dnem i nocí.",
                "Podobá se tak stromu zasazenému u vodních proudů,\nve svůj čas přináší ovoce,\nlistí mu nevadne\na daří se mu vše, co koná.",
                "Jinak je tomu s bezbožnými, zcela jinak:\njsou jako pleva rozvátá větrem,\nvždyť Hospodin dbá o cestu spravedlivých,\nale cesta bezbožných skončí záhubou."
            ]
        },
        "zpev-pred-evangeliem": {
            "name": "Zpěv před evangeliem – Mt 4,17",
            "type": "Zpěv před evangeliem",
            "ref": "Mt 4,17",
            "lines": [
                "Obraťte se, praví Pán, neboť se přiblížilo nebeské království."
            ]
        },
        "evangelium": {
            "name": "Evangelium – Lk 9,22-25",
            "type": "Evangelium",
            "ref": "Lk 9,22-25",
            "lines": [
                "Kdo svůj život pro mě ztratí, zachrání si ho.",
                "Slova svatého evangelia podle Lukáše.",
                "Ježíš řekl svým učedníkům, že Syn člověka bude muset mnoho trpět, že bude zavržen od starších, velekněží a učitelů Zákona, že bude zabit a třetího dne že bude vzkříšen. Všem pak řekl: „Kdo chce jít za mnou, ať zapře sám sebe, den co den bere na sebe svůj kříž a následuje mě. Neboť kdo by chtěl svůj život zachránit, ztratí ho, ale kdo svůj život pro mě ztratí, zachrání si ho. Vždyť co prospěje člověku, když získá celý svět, ale sám sebe zahubí nebo si uškodí?“"
            ]
        }
    }
}
