{
    "name": "Sobota po 2. neděli velikonoční",
    "stupen-slaveni": "běžný",
    "color": {
        "cz": "bílá",
        "en": "white"
    },
    "misal": {
        "1-cteni": {
            "name": "1. čtení – Sk 6,1-7",
            "type": "1. čtení",
            "ref": "Sk 6,1-7",
            "lines": [
                "Vyvolili sedm mužů plných Ducha Svatého.",
                "Čtení ze Skutků apoštolů.",
                "V těch dnech, když počet učedníků rostl, začali helénisté projevovat proti Hebrejům nespokojenost, že prý jejich vdovy jsou při každodenním podělování zanedbávány. Dvanáct (apoštolů) proto svolalo (veškeré) množství učedníků a řekli: „Nebylo by správné, abychom my zanedbávali Boží slovo a sloužili při stole. Proto, bratři, vyberte ze svého středu sedm mužů, kteří mají dobrou pověst a jsou plní Ducha a moudrosti, a my je ustanovíme pro tento úkol. My však se chceme nadále věnovat modlitbě a službě slova.“ Ten návrh se zalíbil celému shromáždění. Vyvolili tedy Štěpána, muže plného víry a Ducha Svatého, dále Filipa, Prochora, Nikanora, Timona, Parmena a Mikuláše, proselytu z Antiochie. Postavili je před apoštoly a oni na ně za modlitby vložili ruce. Boží slovo se šířilo stále více a počet učedníků v Jeruzalémě velmi rostl. Také velké množství kněží poslechlo a přijalo víru."
            ]
        },
        "mezizpev": {
            "name": "Mezizpěv – Žl 33,1-2.4-5.18-19",
            "type": "Mezizpěv",
            "ref": "Žl 33,1-2.4-5.18-19",
            "lines": [
                "Ať spočine na nás, Hospodine, tvé milosrdenství.",
                "Nebo: Aleluja.",
                "Radujte se, spravedliví, z Hospodina,sluší se, aby ho dobří chválili.Citerou oslavujte Hospodina,hrejte mu na desetistrunné harfě.",
                "Neboť Hospodinovo slovo je správné,spolehlivé je celé jeho dílo.Miluje spravedlnost a právo,země je plná Hospodinovy milosti.",
                "Hospodinovo oko bdí nad těmi, kdo se ho bojí,nad těmi, kdo doufají v jeho milost,aby jejich duše vyrval ze smrti,aby jim život zachoval za hladu."
            ]
        },
        "zpev-pred-evangeliem": {
            "name": "Zpěv před evangeliem",
            "type": "Zpěv před evangeliem",
            "ref": "",
            "lines": [
                "Aleluja. Kristus, který všechno stvořil, vstal z mrtvých a smiloval se nad lidským pokolením. Aleluja."
            ]
        },
        "evangelium": {
            "name": "Evangelium – Jan 6,16-21",
            "type": "Evangelium",
            "ref": "Jan 6,16-21",
            "lines": [
                "Viděli Ježíše kráčet po moři.",
                "Slova svatého evangelia podle Jana.",
                "Když nastal večer, šli Ježíšovi učedníci dolů k moři, vstoupili na loď a jeli na druhý břeh moře do Kafarnaa. Už byla tma, a Ježíš k nim ještě nepřišel. Moře se vzdouvalo nárazy silného větru. Když uveslovali pětadvacet nebo třicet honů, viděli Ježíše kráčet po moři a blížit se k lodi. Padl na ně strach. On však na ně zavolal: „To jsem já, nebojte se!“ Chtěli ho vzít na loď\na vtom loď přirazila k břehu, ke kterému jeli."
            ]
        }
    }
}
