{
    "name": "Pondělí po 6. neděli velikonoční",
    "stupen-slaveni": "běžný",
    "color": {
        "cz": "bílá",
        "en": "white"
    },
    "misal": {
        "1-cteni": {
            "name": "1. čtení – Sk 16,11-15",
            "type": "1. čtení",
            "ref": "Sk 16,11-15",
            "lines": [
                "Pán jí otevřel srdce, takže pozorně naslouchala Pavlovým řečem.",
                "Čtení ze Skutků apoštolů.",
                "Vypluli jsme z Troady a jeli jsme rovnou na (ostrov) Samotráké, druhý den do Neapole (v Makedonii) a odtamtud pak do Filip. Je to přední město v té makedonské oblasti a římská osada. V tom městě jsme se zdrželi několik dní. V sobotu jsme vyšli za bránu k řece, kde jsme mysleli, že je modlitebna. Posadili jsme se a mluvili jsme k ženám, které se tam sešly. Poslouchala nás také jedna žena, jmenovala se Lýdie. Byla to obchodnice s nachovými látkami z města Thyatir, ctitelka Boha. Pán jí otevřel srdce, takže pozorně naslouchala Pavlovým řečem. Když přijala křest ona i její rodina, prosila: „Jestliže mě považujete za věřící v Pána, pojďte bydlet do mého domu.“ A přinutila nás k tomu."
            ]
        },
        "mezizpev": {
            "name": "Mezizpěv – Žl 149,1-2.3-4.5-6a+9b",
            "type": "Mezizpěv",
            "ref": "Žl 149,1-2.3-4.5-6a+9b",
            "lines": [
                "Hospodin miluje svůj národ.",
                "Nebo: Aleluja.",
                "Zpívejte Hospodinu píseň novou,\njeho chvála ať zaznívá ve sboru svatých.\nAť se raduje Izrael ze svého tvůrce,\nsynové Siónu ať jásají nad svým králem.",
                "Ať chválí jeho jméno tancem,\nať mu hrají na buben a na citeru,\nneboť Hospodin miluje svůj národ\na pokorné zdobí vítězstvím.",
                "Ať svatí jásají chvalozpěvem,\nať se veselí na svých ložích.\nBoží chválu ať mají v hrdlech.\nVšem jeho svatým bude to ke cti."
            ]
        },
        "zpev-pred-evangeliem": {
            "name": "Zpěv před evangeliem – Jan 15,26b.27a",
            "type": "Zpěv před evangeliem",
            "ref": "Jan 15,26b.27a",
            "lines": [
                "Aleluja. Duch pravdy vydá o mně svědectví, praví Pán; vy také vydávejte svědectví. Aleluja."
            ]
        },
        "evangelium": {
            "name": "Evangelium – Jan 15,26 16,4a",
            "type": "Evangelium",
            "ref": "Jan 15,26 16,4a",
            "lines": [
                "Duch pravdy vydá o mně svědectví.",
                "Slova svatého evangelia podle Jana.",
                "Ježíš řekl svým učedníkům: „Až přijde Přímluvce, kterého vám pošlu od Otce, Duch pravdy, který vychází od Otce, ten vydá o mně svědectví. Vy také vydávejte svědectví, protože jste se mnou od začátku. To jsem k vám mluvil, abyste neodpadli. Vyloučí vás ze synagogy, ano, přichází hodina, kdy každý, kdo vás zabije, bude si myslet, že tím uctívá Boha. Budou tak jednat, protože nepoznali Otce ani mne. Ale toto jsem vám pověděl, abyste si  –  až jednou ta chvíle přijde  – vzpomněli na to, že já jsem vám to řekl.“"
            ]
        }
    }
}
