{
    "name": "Středa po 10. neděli v mezidobí",
    "stupen-slaveni": "běžný",
    "color": {
        "cz": "zelená",
        "en": "green"
    },
    "misal": {
        "1-cteni": {
            "name": "1. čtení – 2 Kor 3,4-11",
            "type": "1. čtení",
            "ref": "2 Kor 3,4-11",
            "lines": [
                "Dal nám schopnost sloužit nové smlouvě, která nespočívá v liteře, ale v duchu.",
                "Čtení z druhého listu svatého apoštola Pavla Korinťanům.",
                "(Bratři!) Takovou důvěru máme k Bohu skrze Krista, ne že bychom sami sobě mohli něco přičítat, jako (by to pocházelo) od nás, ale \nkdyž na něco stačíme, je to od Boha. On nám také dal schopnost sloužit nové smlouvě, která (nespočívá) v liteře, ale v duchu. Neboť litera zabíjí, ale duch oživuje. Jestliže služba (Zákonu) vyrytému literami na kamenech a (vedoucí ke) smrti byla spojena s takovým jasem, že se Izraelité nemohli podívat Mojžíšovi do tváře pro záři - třeba pomíjející - (která mu vycházela) z obličeje, jak teprve daleko skvělejší musí být služba Ducha! Neboť jestliže služba (vedoucí k) odsouzení byla tak slavná, oč daleko více bude slávou překypovat služba (vedoucí ke) spravedlnosti! A proto celou tu minulou slávu vůbec ani nejde slávou nazvat, když ji srovnáme s touto nynější nesmírnou slávou. Když se tak slavně projevilo to, co je pomíjející, oč větší slávu má to, co je trvalé!"
            ]
        },
        "mezizpev": {
            "name": "Mezizpěv – Žl 99,5.6.7.8.9",
            "type": "Mezizpěv",
            "ref": "Žl 99,5.6.7.8.9",
            "lines": [
                "Svatý jsi, Hospodine, náš Bože!",
                "Oslavujte Hospodina, našeho Boha,\nklaňte se u podnože jeho nohou,\nneboť je svatá.",
                "Mojžíš a Árón jsou mezi jeho kněžími\na Samuel mezi těmi, kdo vzývali jeho jméno:\nvzývali Hospodina, a on je vyslýchal.",
                "Mluvíval k nim v oblačném sloupu,\nslýchali jeho příkazy,\nzákon, který jim dal.",
                "Hospodine, náš Bože, tys je vyslyšel,\nBože, byls k nim milostivý,\nale také jsi trestal jejich přestupky.",
                "Oslavujte Hospodina, našeho Boha,\nklaňte se na jeho svaté hoře,\nneboť svatý je Hospodin, náš Bůh!"
            ]
        },
        "zpev-pred-evangeliem": {
            "name": "Zpěv před evangeliem – Žl 25,4b.5a",
            "type": "Zpěv před evangeliem",
            "ref": "Žl 25,4b.5a",
            "lines": [
                "Aleluja. Pouč mě, můj Bože, o svých cestách, veď mě ve své pravdě. Aleluja."
            ]
        },
        "evangelium": {
            "name": "Evangelium – Mt 5,17-19",
            "type": "Evangelium",
            "ref": "Mt 5,17-19",
            "lines": [
                "Nepřišel jsem je zrušit, ale naplnit.",
                "Slova svatého evangelia podle Matouše.",
                "Ježíš řekl svým učedníkům: \"Nemyslete, že jsem přišel zrušit Zákon nebo Proroky. Nepřišel jsem je zrušit, ale naplnit. Amen, pravím vám: Dokud nepomine nebe a země, nepomine jediné písmenko ani jediná čárka ze Zákona, dokud se to všecko nestane. Kdyby tedy někdo zrušil jedno z těchto přikázání - a třebas i to \nnejmenší - a tak učil lidi, bude v nebeském království nejmenší. Kdo se však bude jimi řídit a jim učit, bude v nebeském království veliký.\""
            ]
        }
    }
}
