{
    "name": "Středa po 13. neděli v mezidobí",
    "stupen-slaveni": "běžný",
    "color": {
        "cz": "zelená",
        "en": "green"
    },
    "misal": {
        "1-cteni-am-5-14-15-21-24": {
            "name": "1. čtení - Am 5,14-15.21-24",
            "type": "1. čtení - Am 5,14-15.21-24",
            "ref": "",
            "lines": [
                "Pryč s krákoráním vašich písní! Spravedlnost ať je jako mohutný potok!",
                "Čtení z knihy proroka Amosa.",
                "Hledejte dobro, a ne zlo, abyste žili, aby opravdu byl Hospodin, Bůh zástupů, s vámi – jak říkáte. Zlo mějte v nenávisti a milujte dobro, spravedlnost v bráně zachovejte, snad se Hospodin, Bůh zástupů, smiluje nad tím, co z Josefa zbylo. „Nenávidím vaše svátky a pohrdám jimi, ani cítit nemohu vaše shromáždění. I když mi přinášíte celopaly, nelibuji si ve vašich obětech, neshlížím na díkůčinění z vašich tučných telat. Pryč s krákoráním vašich písní, brnkání vašich harf nechci slyšet! Ať se valí právo jako voda, spravedlnost jako mohutný potok!“"
            ]
        },
        "mezizpev": {
            "name": "Mezizpěv – Žl 50,7.8-9.10.11.12-13.16bc-17",
            "type": "Mezizpěv",
            "ref": "Žl 50,7.8-9.10.11.12-13.16bc-17",
            "lines": [
                "Kdo žije správně, tomu ukážu Boží spásu.",
                "Slyš, můj lide, budu mluvit,\nIzraeli, proti tobě budu svědčit,\njá jsem Bůh, tvůj Bůh!",
                "Nekárám tě pro tvé oběti,\nvždyť tvé žertvy jsou stále přede mnou.\nNemusím brát býka z tvého chléva\nani kozly z tvých ohrad.",
                "Neboť mně patří veškerá zvěř lesní\na na svých horách mám zvířat na tisíce.\nZnám všechny ptáky na nebi,\nmé je vše, co se hemží na poli.",
                "Kdybych měl hlad, nebudu ti o tom říkat,\nvždyť můj je svět se vším, co ho plní!\nCopak požívám maso z býků\nči piji kozlí krev?",
                "Proč odříkáváš má přikázání\na bereš do úst mou smlouvu\nty, který nenávidíš kázeň\na má slova házíš za sebe?"
            ]
        },
        "zpev-pred-evangeliem": {
            "name": "Zpěv před evangeliem – Jak 1,18",
            "type": "Zpěv před evangeliem",
            "ref": "Jak 1,18",
            "lines": [
                "Aleluja. Otec rozhodl, že nám dá život slovem pravdy, abychom byli jako prvotiny ze všeho, co stvořil. Aleluja."
            ]
        },
        "evangelium": {
            "name": "Evangelium – Mt 8,28-34",
            "type": "Evangelium",
            "ref": "Mt 8,28-34",
            "lines": [
                "Přišel jsi trápit démony, dříve než nastal čas.",
                "Slova svatého evangelia podle Matouše.",
                "Když se Ježíš dostal na protější břeh do gadarského kraje, vyšli proti němu dva posedlí, kteří vystoupili z hrobních slují. Byli velmi nebezpeční, takže nikdo nemohl projít tou cestou. Začali křičet: „Co je ti po nás, Boží synu? Přišel jsi nás trápit, dříve než nastal čas?“ Opodál se páslo velké stádo vepřů. Zlí duchové ho tedy prosili: „Vyháníš-li nás, pošli nás do toho stáda vepřů.“ Řekl jim: „Jděte!“ Vyšli tedy a vstoupili do vepřů – a vtom se celé stádo hnalo po příkrém srázu do moře a zahynulo ve vodách. Pasáci utekli, přišli do města a tam všechno oznámili, i o těch posedlých. Tu vyšlo celé město Ježíšovi naproti, a když ho uviděli, prosili ho, aby z jejich kraje odešel."
            ]
        }
    }
}
