{
    "name": "Úterý po 14. neděli v mezidobí",
    "stupen-slaveni": "běžný",
    "color": {
        "cz": "zelená",
        "en": "green"
    },
    "misal": {
        "1-cteni-gn-32-23-33": {
            "name": "1. čtení - Gn 32,23-33",
            "type": "1. čtení - Gn 32,23-33",
            "ref": "",
            "lines": [
                "Budeš se jmenovat Izrael (Boží bojovník), neboť jsi bojoval s Bohem i s muži a zvítězil jsi.",
                "Čtení z první knihy Mojžíšovy.",
                "Jakub vstal v noci, vzal své dvě ženy a dvě služebnice a jedenáct synů a přebrodil se přes Jabok. Vzal je a převedl přes potok a přepravil celý svůj majetek. Jakub zůstal sám. Tu s ním kdosi zápasil až do východu jitřenky. Ten, když viděl, že Jakuba nepřemůže, poranil mu jeho kyčelní kloub, takže se mu kyčelní kloub vymkl, když s ním zápasil. (Neznámý) řekl: „Pusť mě, vždyť už vychází jitřenka!“ (Jakub) odpověděl: „Nepustím tě, dokud mi nepožehnáš.“ (Neznámý) se zeptal: „Jaké je tvé jméno?“ Odpověděl: „Jakub.“ (Ten) řekl: „Už se nebudeš jmenovat Jakub, ale Izrael (Boží bojovník), neboť jsi bojoval s Bohem i s muži a zvítězil jsi.“ Jakub se ho rovněž zeptal: „Oznam také ty mně své jméno.“ Odpověděl: „Proč se ptáš na mé jméno?“ –  a požehnal mu tam. Jakub nazval jméno toho místa Penuel (Boží tvář). (Řekl) totiž: „Viděl jsem Boha tváří v tvář, a zachránil jsem si život.“ Zatímco mu vyšlo slunce, míjel Penuel a kulhal ochromen v kyčli. Proto synové Izraele až dodnes nejedí šlachu, která je na kyčelním kloubu, neboť (anděl) poranil Jakubův kyčelní kloub a jeho šlachu."
            ]
        },
        "mezizpev": {
            "name": "Mezizpěv – Žl 17,1.2-3.6-7.8+15",
            "type": "Mezizpěv",
            "ref": "Žl 17,1.2-3.6-7.8+15",
            "lines": [
                "Ve spravedlnosti uzřím, Bože, tvou tvář.",
                "Slyš, Hospodine, spravedlivou žádost,\nvšimni si mého nářku,\npopřej sluchu mé modlitbě z bezelstných rtů!",
                "Ty sám posuď mou spravedlnost,\ntvé oči vidí, co je správné.\nJestliže zkoušíš mé srdce, zkoumáš mě v noci, tříbíš mě ohněm,\nnenalezneš na mně nepravosti.",
                "Volám k tobě, protože mě vyslyšíš, Bože,\npopřej mi sluchu, slyš mé slovo!\nUkaž mi svou zvláštní milost\nty, který zachraňuješ před odpůrci všechny, kdo se utíkají k tvé pravici.",
                "Opatruj mě jako zřítelnici oka,\ndo stínu svých perutí mě ukryj.\nVe spravedlnosti uzřím tvou tvář,\naž procitnu, nasytím se pohledem na tebe."
            ]
        },
        "zpev-pred-evangeliem": {
            "name": "Zpěv před evangeliem – Jan 10,14",
            "type": "Zpěv před evangeliem",
            "ref": "Jan 10,14",
            "lines": [
                "Aleluja. Já jsem dobrý pastýř, praví Pán, znám svoje ovce a moje ovce znají mne. Aleluja."
            ]
        },
        "evangelium": {
            "name": "Evangelium – Mt 9,32-38",
            "type": "Evangelium",
            "ref": "Mt 9,32-38",
            "lines": [
                "Žeň je sice hojná, ale dělníků málo.",
                "K Ježíšovi přivedli němého člověka, posedlého zlým duchem. Jakmile byl zlý duch vyhnán, němý začal mluvit. Lidé nad tím žasli a říkali: „Něco takového se dosud v izraelském národě nestalo!“ Ale farizeové tvrdili: „Zlé duchy vyhání s pomocí vládce zlých duchů.“ Ježíš pak obcházel všechna města i vesnice, učil v jejich synagogách, hlásal radostnou zvěst o (Božím) království a uzdravoval každou nemoc a každou chorobu. Když viděl zástupy, bylo mu jich líto, protože byli vysílení a skleslí jako ovce bez pastýře. Tu řekl svým učedníkům: „Žeň je sice hojná, ale dělníků málo. Proste proto Pána žně, aby poslal dělníky na svou žeň.“"
            ]
        }
    }
}
