{
    "name": "Středa po 5. neděli postní",
    "stupen-slaveni": "běžný",
    "color": {
        "cz": "fialová",
        "en": "deep-purple"
    },
    "misal": {
        "1-cteni": {
            "name": "1. čtení – Dan 3,14-20.91-92.95",
            "type": "1. čtení",
            "ref": "Dan 3,14-20.91-92.95",
            "lines": [
                "Poslal svého anděla a vysvobodil své služebníky.",
                "Čtení z knihy proroka Daniela.",
                "Král Nabuchodonosor řekl: „Je to pravda, Šadrachu, Mešachu a Abednego, že nectíte mé bohy a neklaníte se zlaté soše, kterou jsem dal postavit? Nuže, jste připraveni hned, jak uslyšíte zvuk rohu, flétny, citery, harfy, psalteria, dud a hudebníky všeho druhu, padnout a klanět se soše, kterou jsem dal postavit? Jestliže se však klanět nebudete, hned budete vhozeni do rozpálené ohnivé pece – a který bůh vás bude moci vysvobodit z mých rukou?“ Šadrach, Mešach a Abednego odpověděli králi Nabuchodonosorovi: „Není třeba, abychom kvůli tomu tobě odpovídali. Jestliže se to stane, náš Bůh, jehož ctíme, může nás vysvobodit; z rozpálené ohnivé pece i z tvé ruky, králi, nás vysvobodí; i kdyby ne, nechť je ti známo, králi, že (ani pak) tvé bohy nectíme a zlaté soše, kterou jsi dal postavit, se neklaníme!“ Tu se Nabuchodonosor vůči Šadrachovi, Mešachovi a Abednegovi naplnil hněvem, který změnil jeho tvář. Poručil rozpálit pec sedmkrát víc, než obvykle se rozpalovala. Několika nejsilnějším mužům svého vojska rozkázal svázat Šadracha, Mešacha a Abednega, aby je vhodili do rozpálené ohnivé pece. (Najednou) král Nabuchodonosor užasl, rychle vstal a řekl svým dvořanům: „Copak jste nevhodili tři svázané muže doprostřed ohně?“ Odpověděli a řekli králi: „Ano, králi!“ (Král) pravil: „Hle, já vidím čtyři muže rozvázané, jak se procházejí uprostřed ohně, není na nich úhony a vzhled čtvrtého je podobný Božímu synu.“ Tu zvolal Nabuchodonosor: „Požehnaný Bůh Šadrachův, Mešachův a Abednegův, jenž poslal svého anděla a vysvobodil své služebníky, kteří v něj důvěřovali! Přestoupili královský rozkaz a vydali svá těla, aby nemuseli uctívat žádného boha, jedině Boha svého, a klanět se mu.“"
            ]
        },
        "mezizpev": {
            "name": "Mezizpěv – Dan 3,52a.52b.53.54.55.56",
            "type": "Mezizpěv",
            "ref": "Dan 3,52a.52b.53.54.55.56",
            "lines": [
                "Požehnaný jsi, Pane, Bože našich otců,\nO: chvályhodný a svrchovaně velebený navěky.\nPožehnané je tvé slavné svaté jméno\nO: a svrchovaně chvályhodné a velebené navěky.\nPožehnaný jsi ty ve svém svatém slavném chrámě\nO: a svrchovaně chvályhodný a slavný navěky.\nPožehnaný jsi ty na svém královském trůně\nO: a svrchovaně chvályhodný a velebený navěky.\nPožehnaný jsi ty, který shlížíš na hlubiny\n a trůníš na cherubech,\nO: a svrchovaně chvályhodný a velebený navěky.\nPožehnaný jsi ty na klenbě nebes\nO: a velebený a plný slávy navěky."
            ]
        },
        "zpev-pred-evangeliem": {
            "name": "Zpěv před evangeliem – srov. Lk 8,15",
            "type": "Zpěv před evangeliem",
            "ref": "srov. Lk 8,15",
            "lines": [
                "Blahoslavení, kteří slovo Páně uchovávají v dobrém a upřímném srdci a s vytrvalostí přinášejí užitek."
            ]
        },
        "evangelium": {
            "name": "Evangelium – Jan 8,31-42",
            "type": "Evangelium",
            "ref": "Jan 8,31-42",
            "lines": [
                "Když vás Syn osvobodí, budete skutečně svobodní.",
                "Slova svatého evangelia podle Jana.",
                "Ježíš řekl židům, kteří v něho uvěřili: „Když vytrváte v mém slovu, budete opravdu mými učedníky. Poznáte pravdu, a pravda vás osvobodí.“ Namítli mu: „Jsme potomci Abrahámovi a nikdy jsme nikomu neotročili. Jak ty můžeš říci: `Stanete se svobodnými'?“ Ježíš jim odpověděl: „Amen, amen, pravím vám: Každý, kdo páchá hřích, je otrokem hříchu. Otrok nezůstává v domě navždy, syn zůstává navždy. Když vás Syn osvobodí, budete skutečně svobodní. Vím, že jste potomci Abrahámovi, ale ukládáte mi o život, protože mé slovo se u vás neuchytí. Já mluvím, co jsem viděl u svého Otce, a vy děláte, co jste slyšeli od vašeho otce.“ Řekli mu na to: „Náš otec je Abrahám.“ Ježíš jim řekl: „Kdybyste byli děti Abrahámovy, konali byste skutky jako Abrahám. Nyní však mě chcete zabít – toho, kdo vám mluvil pravdu, kterou slyšel od Boha. Tak Abrahám nejednal. Vy konáte skutky vašeho otce.“ Odpověděli mu: „My jsme se nenarodili ze smilstva, máme jednoho Otce, Boha.“ Ježíš jim řekl: „Kdyby byl vaším otcem Bůh, milovali byste mě, vždyť já jsem vyšel od Boha a od něho přicházím. Nepřišel jsem totiž sám od sebe, ale on mě poslal.“"
            ]
        }
    }
}
