{
    "name": "Sobota po 5. neděli velikonoční",
    "stupen-slaveni": "běžný",
    "color": {
        "cz": "bílá",
        "en": "white"
    },
    "misal": {
        "1-cteni": {
            "name": "1. čtení – Sk 16,1-10",
            "type": "1. čtení",
            "ref": "Sk 16,1-10",
            "lines": [
                "Přejdi do Makedonie a pomoz nám!",
                "Čtení ze Skutků apoštolů.",
                "Pavel přišel do Derbe a Lystry. Tam byl jeden učedník jménem Timotej. Byl to syn židovky, která se přidala k víře, a pohanského otce. Protože měl u bratří v Lystře a v Ikóniu dobrou pověst, chtěl si ho Pavel vzít s sebou na cesty. Z ohledu na tamější židy ho obřezal, protože všichni věděli, že jeho otec byl pohan. Cestou pak ve všech městech, kudy procházeli, sdělovali ta ustanovení, o kterých apoštolové a starší v Jeruzalémě rozhodli, že se mají zachovávat. Tak se církevní obce utvrzovaly ve víře a jejich počet každý den velmi rostl. Potom šli přes Frýgii a galatským krajem, protože Duch Svatý jim zabránil kázat slovo Boží v (provincii) Asii. Když došli k Mýsii, chtěli přejít do Bithýnie, ale Ježíšův Duch jim to nedovolil. Prošli tedy Mýsií dolů do Troady. V noci pak měl Pavel vidění: stál před ním nějaký Makedoňan a prosil ho: „Přejdi do Makedonie a pomoz nám!“ Po tomto jeho vidění jsme se snažili dostat co nejdříve na cestu do Makedonie. Usoudili jsme totiž z toho, že nás tam Bůh volá, abychom jim hlásali radostnou zvěst."
            ]
        },
        "mezizpev": {
            "name": "Mezizpěv – Žl 100,1-2.3.5",
            "type": "Mezizpěv",
            "ref": "Žl 100,1-2.3.5",
            "lines": [
                "Plesejte Hospodinu, všechny země.",
                "Nebo: Aleluja.",
                "Plesejte Hospodinu, všechny země,služte Hospodinu s radostí,vstupte před něho s jásotem.",
                "Uznejte, že Hospodin je Bůh:on nás učinil, a my mu náležíme,jsme jeho lid a stádce jeho pastvy.",
                "Neboť Hospodin je dobrý,jeho milosrdenství je věčné,po všechna pokolení trvá jeho věrnost."
            ]
        },
        "zpev-pred-evangeliem": {
            "name": "Zpěv před evangeliem – Kol 3,1",
            "type": "Zpěv před evangeliem",
            "ref": "Kol 3,1",
            "lines": [
                "Aleluja. Když jste s Kristem byli vzkříšeni, usilujte o to, co pochází shůry, kde je Kristus po Boží pravici. Aleluja."
            ]
        },
        "evangelium": {
            "name": "Evangelium – Jan 15,18-21",
            "type": "Evangelium",
            "ref": "Jan 15,18-21",
            "lines": [
                "Nejste ze světa, ale já jsem vás ze světa vyvolil.",
                "Slova svatého evangelia podle Jana.",
                "Ježíš řekl svým učedníkům: „Jestliže vás svět nenávidí, uvažte, že mne nenáviděl dříve než vás. Kdybyste byli ze světa, svět by miloval to, co mu patří. Že však nejste ze světa, ale já jsem vás ze světa vyvolil, proto vás svět nenávidí. Vzpomeňte si na slovo, které jsem vám řekl: `Služebník není víc než jeho pán.' Když pronásledovali mne, budou pronásledovat i vás. Když zachovali moje slovo, budou zachovávat i vaše. Ale to všechno vám způsobí kvůli mému jménu, protože neznají toho, který mě poslal.“"
            ]
        }
    }
}
