{
    "name": "Úterý po 12. neděli v mezidobí",
    "stupen-slaveni": "běžný",
    "color": {
        "cz": "zelená",
        "en": "green"
    },
    "misal": {
        "1-cteni-gn-13-2-5-18": {
            "name": "1. čtení - Gn 13,2.5-18",
            "type": "1. čtení - Gn 13,2.5-18",
            "ref": "",
            "lines": [
                "Ať není spor mezi mnou a tebou, vždyť jsme blízcí příbuzní.",
                "Čtení z první knihy Mojžíšovy.",
                "Abrám měl velmi mnoho stád, stříbra a zlata. Také Lot, který šel s Abrámem, měl brav, skot a stany. Země jim proto nestačila, aby zůstali spolu, neboť měli tak velký majetek, že nemohli zůstat pohromadě. Došlo totiž k hádce mezi pastýři stáda Abrámova a pastýři stáda Lotova, neboť i Kananejci a Perizité bydlili tehdy v zemi. Abrám tedy řekl Lotovi: „Ať není spor mezi mnou a tebou, mezi pastýři mými a tvými, vždyť jsme blízcí příbuzní. Není ti otevřená celá země? Odděl se ode mne! Půjdeš-li nalevo, dám se napravo, půjdeš-li napravo, dám se nalevo.“ Když Lot zdvihl své oči, viděl, že celé okolí Jordánu až k Soaru je všude zavlažováno jako Hospodinova zahrada, jako Egypt – bylo to dřív, než Hospodin zničil Sodomu a Gomoru. Lot si vybral celé okolí Jordánu a odtáhl na východ. Tak se od sebe oddělili. Abrám zůstal v zemi Kanaán a Lot se usídlil v městech kolem Jordánu a tábořil až k Sodomě. Lidé ze Sodomy však byli velmi zločinní a prohřešovali se proti Hospodinu. Když se Lot oddělil, řekl Hospodin Abrámovi: „Pozdvihni své oči a rozhlédni se z místa, kde stojíš, na sever a na jih, na východ a na západ. Celou tu zemi, kterou vidíš, dám tobě a tvému potomstvu na věky. Rozmnožím tvé potomstvo jako prach země; jenom kdo dovede spočítat zrnka prachu, spočítá i tvé potomstvo. Nuže, projdi zemí křížem krážem, neboť ji dám tobě.“ Potom Abrám zdvihl své stany a dospěl \nk doubravě Mamrea u Hebronu a vystavěl tam Hospodinu oltář."
            ]
        },
        "mezizpev": {
            "name": "Mezizpěv – Žl 15,2-3ab.3cd-4ab.5",
            "type": "Mezizpěv",
            "ref": "Žl 15,2-3ab.3cd-4ab.5",
            "lines": [
                "Hospodine, kdo smí prodlévat v tvém stánku?",
                "Kdo žije bez vady a koná spravedlnost,\nupřímně smýšlí ve svém srdci,\nsvým jazykem nepomlouvá.",
                "Nečiní příkoří svému bližnímu,\nnetupí svého souseda.\nNešlechetným člověkem pohrdá,\nale váží si těch, kdo se bojí Hospodina.",
                " Nelichvaří svými penězi\na nebere úplatky proti nevinnému.\nKdo takto jedná,\nnikdy nezakolísá!"
            ]
        },
        "zpev-pred-evangeliem": {
            "name": "Zpěv před evangeliem – Jan 8,12",
            "type": "Zpěv před evangeliem",
            "ref": "Jan 8,12",
            "lines": [
                "Aleluja. Já jsem světlo světa, praví Pán, kdo mě následuje, bude mít světlo života. Aleluja."
            ]
        },
        "evangelium": {
            "name": "Evangelium – Mt 7,6.12-14",
            "type": "Evangelium",
            "ref": "Mt 7,6.12-14",
            "lines": [
                "Co chcete, aby lidé dělali vám, to i vy dělejte jim. ",
                "Slova svatého evangelia podle Matouše.",
                "Ježíš řekl svým učedníkům: „Nedávejte svaté věci psům a neházejte svoje perly před vepře, nebo je nohama pošlapou, obrátí se proti vám a roztrhají vás. Co chcete, aby lidé dělali vám, to všechno i vy dělejte jim, neboť v tom je celý Zákon i Proroci. Vejděte těsnou branou. Neboť prostorná je brána a široká cesta, která vede k záhubě, a mnoho je těch, kdo tamtudy vcházejí. Jak těsná je brána a úzká cesta, která vede k životu, a málo je těch, kdo ji najdou!“"
            ]
        }
    }
}
