{
    "name": "Svátek Ježíše Krista, nejvyššího a věčného kněze",
    "stupen-slaveni": "svátek",
    "color": {
        "cz": "bílá",
        "en": "white"
    },
    "misal": {
        "1-cteni": {
            "name": "1. čtení – Jer 31, 31-34",
            "type": "1. čtení",
            "ref": "Jer 31, 31-34",
            "lines": [
                "Sjednám s nimi novou smlouvu a na jejich hřích už nevzpomenu.",
                "Čtení z knihy proroka Jeremiáše.",
                "Hle, blíží se dni - praví Hospodin - kdy sjednám s Izraelovým a Judovým domem novou smlouvu: ne jako byla smlouva, kterou jsem sjednal s jejich otci, když jsem je vzal za ruku, abych je vyvedl z egyptské země; smlouva, kterou zrušili, ačkoli já jsem byl jejich pánem - praví Hospodin. Taková bude smlouva, kterou sjednám s Izraelovým domem po těch dnech - praví Hospodin: Vložím svůj zákon do jejich nitra, napíšu jim ho do srdce, budu jim Bohem a oni budou mým lidem! Nebude již učit druh druha, bratr bratra: „Poznej Hospodina!“ Neboť mě poznají všichni od nejmenšího do největšího - praví Hospodin. Jejich nepravosti jim odpustím a na jejich hřích už nevzpomenu."
            ]
        },
        "mezizpev": {
            "name": "Mezizpěv – Žl 110 (109),1.2.3   Odp.: 4b",
            "type": "Mezizpěv",
            "ref": "Žl 110 (109),1.2.3   Odp.: 4b",
            "lines": [
                "Ty jsi kněz navěky podle řádu Melchizedechova!",
                "Hospodin řekl mému Pánu: „Seď po mé pravici, \ndokud nepoložím tvé nepřátele za podnož tvým nohám.“ ",
                "Žezlo moci ti podává Hospodin ze Siónu: \n„Panuj uprostřed svých nepřátel! ",
                "Ode dne zrození je ti určeno vládnout v posvátném lesku: \nzplodil jsem tě jako rosu před jitřenkou.“"
            ]
        },
        "zpev-pred-evangeliem": {
            "name": "Zpěv před evangeliem – Žid 5, 8-9",
            "type": "Zpěv před evangeliem",
            "ref": "Žid 5, 8-9",
            "lines": [
                "Aleluja. Ačkoli to byl Syn Boží, naučil se svým utrpením poslušnosti; když tak dokonal své dílo, stal se příčinou věčné spásy pro všechny, kteří ho poslouchají. Aleluja."
            ]
        },
        "evangelium": {
            "name": "Evangelium – Mk 14, 22-25",
            "type": "Evangelium",
            "ref": "Mk 14, 22-25",
            "lines": [
                "To je mé tělo. To je má krev.",
                "Slova svatého evangelia podle Marka.",
                "Když jedli, vzal chléb, požehnal ho, lámal a dával jim ho se slovy: „Vezměte. To je mé tělo.“ Potom vzal kalich, vzdal díky, podal jim ho a pili z něho všichni. A řekl jim: „To je má krev, krev nové smlouvy, která se prolévá za všechny. Amen, pravím vám: Už nikdy nebudu pít z plodu révy až do toho dne, kdy z nového plodu budu pít v Božím království.“"
            ]
        }
    }
}
