{
    "name": "Čtvrtek po 2. neděli velikonoční",
    "stupen-slaveni": "běžný",
    "color": {
        "cz": "bílá",
        "en": "white"
    },
    "misal": {
        "1-cteni": {
            "name": "1. čtení – Sk 5,27-33",
            "type": "1. čtení",
            "ref": "Sk 5,27-33",
            "lines": [
                "My jsme svědky těchto událostí, stejně i Duch Svatý.",
                "Čtení ze Skutků apoštolů.",
                "Když (služebníci) přivedli (apoštoly) a postavili je před veleradu, začal je velekněz vyslýchat: „Přísně jsme vám přece přikázali, že v tom jménu už nesmíte učit. Přesto však Jeruzalém je plný toho vašeho učení a chcete na nás přivolat pomstu za krev onoho člověka!“ Ale Petr a ostatní apoštolové na to řekli: „Více je třeba poslouchat Boha než lidi. Bůh našich otců vzkřísil Ježíše, když vy jste ho pověsili na dřevo a zabili. Ale Bůh ho povýšil po své pravici jako vůdce a spasitele, aby Izraeli dopřál obrácení a odpuštění hříchů. A my jsme svědky těchto událostí, stejně i Duch Svatý, kterého Bůh dal těm, kdo ho poslouchají.“ Když to uslyšeli, rozzuřili se a rozhodli, že je sprovodí ze světa."
            ]
        },
        "mezizpev": {
            "name": "Mezizpěv – Žl 34,2+9.17-18.19-20",
            "type": "Mezizpěv",
            "ref": "Žl 34,2+9.17-18.19-20",
            "lines": [
                "Ubožák zavolal, a Hospodin slyšel.",
                "Nebo: Aleluja.",
                "Ustavičně chci velebit Hospodina,vždy bude v mých ústech jeho chvála.Okuste a vizte, jak je Hospodin dobrý,blaze člověku, který se k němu utíká.",
                "Hospodinův hněv stíhá ty, kdo páchají zlo,aby vyhladil ze země vzpomínku na ně.(Spravedliví) volali, a Hospodin slyšelvysvobodil je z každé jejich tísně.",
                "Blízko je Hospodin těm, kdo mají zkroušené srdce,na duchu zlomené zachraňuje.Spravedlivý mívá mnoho soužení,Hospodin však ho ze všech vyprostí."
            ]
        },
        "zpev-pred-evangeliem": {
            "name": "Zpěv před evangeliem – Jan 20,29",
            "type": "Zpěv před evangeliem",
            "ref": "Jan 20,29",
            "lines": [
                "Aleluja. Protože jsi mě uviděl, Tomáši, uvěřil jsi, praví Pán; blahoslavení, kdo neviděli, a uvěřili. Aleluja."
            ]
        },
        "evangelium": {
            "name": "Evangelium – Jan 3,31-36",
            "type": "Evangelium",
            "ref": "Jan 3,31-36",
            "lines": [
                "Otec miluje Syna a všechno mu dal do rukou.",
                "Slova svatého evangelia podle Jana.",
                "Kdo přichází shora, je nade všemi; kdo pochází ze země, je pozemský a mluví pozemsky. Kdo přichází z nebe, je nade všemi; svědčí o tom, co viděl a slyšel, ale jeho svědectví nikdo nepřijímá. Kdo však jeho svědectví přijal, dotvrdil tím, že Bůh je pravdivý. Vždyť ten, kterého poslal Bůh, mluví slova Boží; (Bůh) mu totiž dává Ducha v míře neomezené. Otec miluje Syna a všechno mu dal do rukou. Kdo věří v Syna, má život věčný; kdo však odpírá věřit v Syna, nespatří život, ale zůstává na něm Boží hněv."
            ]
        }
    }
}
