{
    "name": "Pátek po 5. neděli velikonoční",
    "stupen-slaveni": "běžný",
    "color": {
        "cz": "bílá",
        "en": "white"
    },
    "misal": {
        "1-cteni": {
            "name": "1. čtení – Sk 15,22-31",
            "type": "1. čtení",
            "ref": "Sk 15,22-31",
            "lines": [
                "Rozhodl Duch Svatý i my, že vám nemá být ukládáno žádné další břemeno kromě těchto nutných věcí.",
                "Čtení ze Skutků apoštolů.",
                "Apoštolové a starší se spolu s celou církevní obcí rozhodli, že ze svého středu vyberou několik mužů a pošlou je s Pavlem a Barnabášem do Antiochie, totiž Judu, kterému říkali Barsabáš, a Silu - vedoucí muže mezi bratry. A po nich poslali toto psaní: „Apoštolové a starší posílají bratrský pozdrav bratrům v Antiochii, Sýrii a Kilíkii, obráceným z pohanství. Dověděli jsme se, že vás někteří lidé z našeho středu znepokojili a popletli svými řečmi, ačkoli k tomu nedostali od nás žádné pověření. My jsme se tedy nyní jednomyslně rozhodli, že vybereme některé muže a pošleme je k vám zároveň s naším drahým Barnabášem a Pavlem, lidmi, kteří nasadili svůj život pro našeho Pána Ježíše Krista. A tak jsme vypravili Judu a Silu, aby vám to vyložili ještě ústně. Rozhodl totiž Duch Svatý i my, že vám nemá být ukládáno žádné další břemeno kromě těchto nutných věcí: vyvarovat se toho, co bylo obětováno modlám, krve, masa z udušených zvířat a smilstva. Budete-li se těchto věcí chránit, jednáte správně. Buďte zdrávi.“ Tak je tedy vyprovodili a oni šli do Antiochie. Tam shromáždili obec a odevzdali jim list. Když ho přečetli, velmi se zaradovali nad jeho povzbudivým obsahem."
            ]
        },
        "mezizpev": {
            "name": "Mezizpěv – Žl 57,8-9.10-12",
            "type": "Mezizpěv",
            "ref": "Žl 57,8-9.10-12",
            "lines": [
                "Budu tě chválit mezi národy, Pane!",
                "Nebo: Aleluja.",
                "Plné důvěry je mé srdce, Bože, plné důvěry je mé srdce;budu zpívat a hrát.Probuď se, má duše, probuď se, citero a harfo,chci vzbudit jitřenku.",
                "Budu tě chválit mezi národy, Pane,budu tě oslavovat mezi pohany,protože tvá milost je veliká až k nebi,tvá věrnost až do oblak.Ukaž se ve své vznešenosti na nebesích, Bože,nad celou zemí nechť je tvá sláva!"
            ]
        },
        "zpev-pred-evangeliem": {
            "name": "Zpěv před evangeliem – Jan 15,15b",
            "type": "Zpěv před evangeliem",
            "ref": "Jan 15,15b",
            "lines": [
                "Aleluja. Nazval jsem vás přáteli, praví Pán, protože vám jsem oznámil všechno, co jsem slyšel od svého Otce. Aleluja."
            ]
        },
        "evangelium": {
            "name": "Evangelium – Jan 15,12-17",
            "type": "Evangelium",
            "ref": "Jan 15,12-17",
            "lines": [
                "To vám přikazuji: Milujte se navzájem.",
                "Slova svatého evangelia podle Jana.",
                "Ježíš řekl svým učedníkům: „To je mé přikázání: Milujte se navzájem, jak jsem já miloval vás. Nikdo nemá větší lásku než ten, kdo za své přátele položí svůj život. Vy jste moji přátelé, když děláte, co já vám ukládám. Už vás nenazývám služebníky, protože služebník neví, co dělá jeho pán. Nazval jsem vás přáteli, protože vám jsem oznámil všechno, co jsem slyšel od svého Otce. Ne vy jste si vyvolili mne, ale já jsem vyvolil vás a určil jsem vás k tomu, abyste šli a přinášeli užitek a váš užitek aby byl trvalý. Potom vám Otec dá všechno, oč ho budete prosit ve jménu mém. To vám přikazuji: Milujte se navzájem!“"
            ]
        }
    }
}
