{
    "name": "Pátek po 5. neděli v mezidobí",
    "stupen-slaveni": "běžný",
    "color": {
        "cz": "zelená",
        "en": "green"
    },
    "misal": {
        "1-cteni": {
            "name": "1. čtení – Gn 3,1-8",
            "type": "1. čtení",
            "ref": "Gn 3,1-8",
            "lines": [
                "Budete jako Bůh poznávat dobro i zlo.",
                "Čtení z první knihy Mojžíšovy.",
                "Had byl nejlstivější ze všech polních zvířat, která Hospodin Bůh udělal. Pravil ženě: „Řekl (skutečně) Bůh: Nejezte ze žádného stromu v zahradě?“ Žena odpověděla hadovi: „Smíme jíst z ovoce každého stromu v zahradě, jen z ovoce stromu, který je uprostřed zahrady – pravil Bůh – nesmíte jíst a ani se ho nedotýkejte, abyste nezemřeli.“ Had nato ženě: „Ne, nezemřete. Naopak, Bůh ví, že kdybyste z něho jedli, otevřou se vaše oči a budete jako Bůh poznávat dobro i zlo.“ Žena viděla, že (ovoce) stromu je chutné k jídlu, vábné na pohled, lákavé pro poznání moudrosti, a proto si z něho utrhla a jedla, a dala též svému muži; byl s ní a jedl. Tu se jim oběma otevřely oči a zpozorovali, že jsou nazí. Sešili tedy fíkové listy a udělali si zástěry. Když slyšeli hlas Hospodina Boha, který se procházel v zahradě při denním vánku, skryl se člověk a jeho žena před Hospodinem Bohem mezi stromy v zahradě."
            ]
        },
        "mezizpev": {
            "name": "Mezizpěv – Žl 32, 1-2.5.6.7",
            "type": "Mezizpěv",
            "ref": "Žl 32, 1-2.5.6.7",
            "lines": [
                "Šťastný je ten, komu byla odpuštěna nepravost.",
                "Šťastný je ten, komu byla odpuštěna nepravost,\njehož hřích je přikryt.\nŠťastný je člověk, kterému Hospodin nepřičítá vinu,\nv jehož duši není klamu.",
                "Vyznal jsem se ti ze svého hříchu,\nsvou nepravost jsem nezatajil.\nŘekl jsem: „Vyznávám se Hospodinu ze své ničemnosti.“\nA tys odpustil, co jsem zavinil hříchem.",
                "Proto se bude k tobě modlit každý zbožný\nv čas tísně.\nAž budou dorážet přívaly vod,\nk němu nedosáhnou.",
                "Tys mé útočiště, ušetříš mě úzkostí,\nzahrneš mě radostí ze záchrany."
            ]
        },
        "zpev-pred-evangeliem": {
            "name": "Zpěv před evangeliem – srov. Sk 16,14b",
            "type": "Zpěv před evangeliem",
            "ref": "srov. Sk 16,14b",
            "lines": [
                "Aleluja. Otevři, Pane, naše srdce, abychom naslouchali slovům tvého Syna. Aleluja."
            ]
        },
        "evangelium": {
            "name": "Evangelium – Mk 7,31-37",
            "type": "Evangelium",
            "ref": "Mk 7,31-37",
            "lines": [
                "Hluchým dává sluch, i němým řeč.",
                "Slova svatého evangelia podle Marka.",
                "Ježíš odešel z tyrského kraje a šel přes Sidón územím Desetiměstí ke Galilejskému moři. Přivedli k němu hluchoněmého a prosili ho, aby na něho vložil ruku. Vzal ho stranou od zástupu, vložil mu prsty do uší, dotkl se slinou jeho jazyka, vzhlédl s povzdechem k nebi a řekl: „Effatha!“, to znamená: „Otevři se!“ A hned se mu otevřel sluch, rozvázal se mu jazyk a mluvil správně. (Ježíš) jim pak přikázal, aby o tom nikomu neříkali. Čím více však jim to přikazoval, tím více to rozhlašovali. Byli celí užaslí a říkali: „Dobře všechno udělal: i hluchým dává sluch, i němým řeč!“"
            ]
        }
    }
}
