{
    "name": "Úterý po 3. neděli velikonoční",
    "stupen-slaveni": "běžný",
    "color": {
        "cz": "bílá",
        "en": "white"
    },
    "misal": {
        "1-cteni": {
            "name": "1. čtení – Sk 7,51-8,1a",
            "type": "1. čtení",
            "ref": "Sk 7,51-8,1a",
            "lines": [
                "Pane Ježíši, přijmi mého ducha!",
                "Čtení ze Skutků apoštolů.",
                "Štěpán pravil lidu, starším a učitelům Zákona: „Vy tvrdošíjní s neobřezaným srdcem a neobřezanýma ušima! Vy vždycky odporujete Duchu Svatému - \njak vaši otcové, tak i vy. Koho z proroků nepronásledovali vaši otcové? Zabíjeli ty, kteří předpovídali příchod Spravedlivého. A vy jste ho teď skutečně zradili a zavraždili! Zákon od andělů vyhlášený jste sice přijali, ale nezachovali jste ho.“ Když to slyšeli, velmi se rozzuřili a skřípali zuby proti němu. On však, plný Ducha Svatého, pohleděl k nebi a spatřil Boží slávu a Ježíše, jak stojí po Boží pravici. A zvolal: „Vidím nebesa otevřená a Syna člověka, jak stojí po Boží pravici!“ Oni se však dali do velkého křiku, zacpávali si uši a všichni se na něho zuřivě vrhli. Pak ho vyhnali ven za město a začali ho kamenovat. Svědkové si přitom složili svrchní šat k nohám jednoho mladého muže - jmenoval se Šavel. Tak Štěpána kamenovali. A on se modlil: „Pane Ježíši, přijmi mého ducha!“ Klesl pak na kolena a hlasitě zvolal: „Pane, nepřičítej jim tento hřích.“ A po těch slovech skonal. Šavel plně schvaloval, že ho zabili."
            ]
        },
        "mezizpev": {
            "name": "Mezizpěv – Žl 31,3cd-4.6ab+7b+8a.17+21ab",
            "type": "Mezizpěv",
            "ref": "Žl 31,3cd-4.6ab+7b+8a.17+21ab",
            "lines": [
                "Do tvých rukou, Hospodine, svěřuji svého ducha.",
                "Nebo: Aleluja.",
                "Buď mi, Hospodine, ochrannou skálou,\nopevněnou tvrzí k mé záchraně,\nvždyť ty jsi má skála a má tvrz,\npro své jméno mě povedeš a budeš řídit.",
                "Do tvých rukou svěřuji svého ducha,\nHospodine, věrný Bože, ty mě vysvobodíš.\nJá však důvěřuji v Hospodina,\nbudu se veselit a jásat nad tvým slitováním.",
                "Svou jasnou tvář ukaž svému služebníku,\nzachraň mě svou slitovností.\nTvoje tvář je mi bezpečnou ochranou\npřed spiknutím lidí."
            ]
        },
        "zpev-pred-evangeliem": {
            "name": "Zpěv před evangeliem – Jan 6,35ab",
            "type": "Zpěv před evangeliem",
            "ref": "Jan 6,35ab",
            "lines": [
                "Aleluja. Já jsem chléb života, praví Pán; kdo přichází ke mně, nebude hladovět. Aleluja."
            ]
        },
        "evangelium": {
            "name": "Evangelium – Jan 6,30-35",
            "type": "Evangelium",
            "ref": "Jan 6,30-35",
            "lines": [
                "Ne Mojžíš, ale pravý chléb z nebe vám dává můj Otec.",
                "Slova svatého evangelia podle Jana.",
                "Zástup řekl Ježíšovi: „Jaké ty děláš znamení, abychom (ho) viděli a uvěřili ti? Co konáš? Naši předkové jedli na poušti manu, jak je psáno: `Chléb z nebe jim dal jíst.'„ Ježíš jim odpověděl: „Amen, amen, pravím vám: Chléb z nebe vám nedal Mojžíš, ale pravý chléb z nebe vám dává můj Otec; neboť chléb Boží je ten, který sestupuje z nebe a dává život světu.“ Prosili ho tedy: „Pane, dávej nám ten chléb pořád.“ Ježíš jim řekl: „Já jsem chléb života! Kdo přichází ke mně, nebude nikdy hladovět, a kdo věří ve mne, nebude nikdy žíznit.“"
            ]
        }
    }
}
