{
    "name": "Pondělí po 2. neděli velikonoční",
    "stupen-slaveni": "běžný",
    "color": {
        "cz": "bílá",
        "en": "white"
    },
    "misal": {
        "1-cteni": {
            "name": "1. čtení – Sk 4,23-31",
            "type": "1. čtení",
            "ref": "Sk 4,23-31",
            "lines": [
                "Když skončili modlitbu, byli všichni naplněni Duchem Svatým, takže s odvahou hlásali Boží slovo.",
                "Čtení ze Skutků apoštolů.",
                "Když byli (Petr a Jan) propuštěni, přišli k svým a pověděli jim, co všecko jim řekli velekněží a starší. Když to uslyšeli, společně zvolali k Bohu: „Pane, ty jsi stvořil nebe a zemi, moře i všechno, co je v nich. Ty jsi řekl pod vlivem Ducha Svatého ústy svého služebníka, našeho praotce Davida: 'Proč se pohané bouří, proč národy osnují marné plány? Pozdvihují se pozemští králové a vládcové se spolčují proti Pánu a proti jeho Pomazanému.' Ano, skutečně, v tomto městě se spolčili Herodes a Poncius Pilát s pohany a s izraelským lidem proti tvému svatému služebníku Ježíšovi, kterého jsi pomazal (za Mesiáše). Tak vykonali, co předem určila tvoje moc a tvé rozhodnutí. A teď pohleď, Pane, jak vyhrožují! Dej tedy svým služebníkům, aby tvoje slovo hlásali s veškerou odvahou, a ty přitom zasahuj svou mocí, aby se skrze jméno tvého svatého služebníka Ježíše dála uzdravení a znamení a divy.“ A když skončili tuto modlitbu, otřáslo se to místo, kde byli shromážděni, a všichni byli naplněni Duchem Svatým, takže s odvahou hlásali Boží slovo."
            ]
        },
        "mezizpev": {
            "name": "Mezizpěv – Žl 2,1-3.4-6.7-9",
            "type": "Mezizpěv",
            "ref": "Žl 2,1-3.4-6.7-9",
            "lines": [
                "Blaze všem, kdo se uchylují k Hospodinu.",
                "Nebo: Aleluja.",
                "Proč se pohané bouří,proč národy strojí marné plány?Pozdvihují se pozemští královéa vladaři se spolu umlouvajíproti Hospodinu a jeho Pomazanému.„Rozlámejme jejich okovya odhoďme jejich pouta!“",
                "Směje se ten, který na nebesích trůní,jsou Pánu k smíchu.Potom k nim rozhorlen mluví,děsí je svým hněvem.„Já jsem přece ustanovil svého králena Siónu, na své svaté hoře!“",
                "Vyhlásím Hospodinovo rozhodnutí,Pán mi řekl: „Ty jsi můj syn,já jsem tě dnes zplodil.Požádej mě, a dám ti v majetek národy,do vlastnictví končiny země.Můžeš je roztlouci železným prutem,jako hliněnou nádobu je můžeš rozbít.“"
            ]
        },
        "zpev-pred-evangeliem": {
            "name": "Zpěv před evangeliem – Kol 3,1",
            "type": "Zpěv před evangeliem",
            "ref": "Kol 3,1",
            "lines": [
                "Aleluja. Když jste s Kristem byli vzkříšeni, usilujte o to, co pochází shůry, kde je Kristus po Boží pravici. Aleluja."
            ]
        },
        "evangelium": {
            "name": "Evangelium – Jan 3,1-8",
            "type": "Evangelium",
            "ref": "Jan 3,1-8",
            "lines": [
                "Jestliže se nenarodí někdo znova, nemůže spatřit Boží království.",
                "Slova svatého evangelia podle Jana.",
                "Mezi farizeji byl člověk, jmenoval se Nikodém, člen židovské velerady. Ten přišel (k Ježíšovi) v noci a řekl mu: „Mistře, víme, že jsi učitel, který přišel od Boha, protože nikdo nemůže konat ta znamení, která konáš ty, není-li s ním Bůh.“ Ježíš mu odpověděl: „Amen, amen, pravím ti: Jestliže se nenarodí někdo znova, nemůže spatřit Boží království.“ Nikodém mu namítl: „Jak se může člověk narodit, když je starý? Přece nemůže podruhé vejít do mateřského lůna a narodit se.“ Ježíš odpověděl: „Amen, amen, pravím ti: Jestliže se nenarodí někdo z vody a z Ducha, nemůže vejít do Božího království. Co se narodilo z těla, je tělo, co se narodilo z Ducha, je duch. Nediv se, že jsem ti řekl: Musíte se narodit znova. Vítr vane, kam chce; slyšíš, jak hučí, ale nevíš, odkud přichází a kam jde. Tak je to s každým, kdo se narodil z Ducha.“"
            ]
        }
    }
}
