{
    "name": "Sobota po 5. neděli v mezidobí",
    "stupen-slaveni": "běžný",
    "color": {
        "cz": "zelená",
        "en": "green"
    },
    "misal": {
        "1-cteni": {
            "name": "1. čtení – Gn 3,9-24",
            "type": "1. čtení",
            "ref": "Gn 3,9-24",
            "lines": [
                "Hospodin vykázal člověka ze zahrady Edenu, aby obdělával půdu. ",
                "Čtení z první knihy Mojžíšovy.",
                "Hospodin Bůh zavolal na člověka a řekl mu: „Kde jsi?“ On odpověděl: „Slyšel jsem tvůj hlas v zahradě a bál jsem se, že jsem nahý, a proto jsem se skryl.“ (Bůh) řekl: „Kdopak ti pověděl, že jsi nahý? Jistě jsi jedl ze stromu, z něhož jsem ti zakázal jíst!“ Člověk odpověděl: „Žena, kterou jsi mi dal, ta mi dala z toho stromu, a tak jsem jedl.“ Hospodin Bůh se zeptal ženy: „Cos to udělala?“ Žena odpověděla: „Had mě svedl, a tak jsem jedla.“ Tu řekl Hospodin Bůh hadovi: „Protože jsi to udělal, buď zlořečený mezi všemi krotkými i divokými zvířaty. Budeš se plazit po břichu a žrát prach po všechny dny svého života. Nepřátelství ustanovuji mezi tebou a ženou, mezi potomstvem tvým a jejím. Její potomstvo ti rozdrtí hlavu, zatímco ty budeš šlapat po jeho patě.“ K ženě řekl: „Rozmnožím útrapy tvých těhotenství; v bolestech budeš rodit své děti, ale přece budeš toužit po muži, a on ti bude vládnout.“ A člověku řekl: „Protože jsi uposlechl hlasu své ženy a jedl jsi ze stromu, z něhož jsem ti zakázal jíst: Zlořečená buď země kvůli tobě, s námahou se z ní budeš živit po celý svůj život. Trní a bodláčí ti bude plodit, musíš se živit polními rostlinami. V potu tváře budeš jíst chléb, dokud se nevrátíš do hlíny, vždyť z ní jsi byl vzat. Ano, jsi prach a do prachu se vrátíš!“ Člověk dal své ženě jméno Eva, neboť se stala matkou všech živých. Hospodin Bůh udělal člověku a jeho ženě kožené sukně a oblékl je (do nich). Hospodin Bůh řekl: „Hle, člověk se stal jako jeden z nás tím, že zná dobro i zlo. Ať jen nyní nevztáhne svou ruku a nevezme si ještě ze stromu života, aby tím jídlem nebyl živ navěky.“ Vykázal ho tedy Hospodin Bůh ze zahrady Edenu, aby obdělával půdu, z níž byl vzat. Vyhnal člověka a postavil východně od zahrady Edenu cheruby a ostrý blýskající meč, aby střežili cestu ke stromu života."
            ]
        },
        "mezizpev": {
            "name": "Mezizpěv – Žl 90,2.3-4.5-6.12-13",
            "type": "Mezizpěv",
            "ref": "Žl 90,2.3-4.5-6.12-13",
            "lines": [
                "Pane, tys nám býval útočištěm od pokolení do pokolení!",
                "Dříve než se zrodily hory, než povstala země a svět,\nod věčnosti do věčnosti jsi ty, Bože!",
                "Rozkazem vracíš člověka v prach\na pravíš: „Vraťte se, smrtelníci!“\nNeboť tisíc let je v tvých očích\njako včerejší den, který minul,\na jako noční hlídka.",
                "Uchvacuješ je, jsou jako ranní sen,\npodobají se pučící trávě:\nZrána kvete a bují,\nvečer je skosena a vadne.",
                "Nauč nás počítat naše dny,\nať dojdeme k moudrosti srdce.\nObrať se, Hospodine, jak dlouho ještě budeš čekat?\nSlituj se nad svými služebníky!"
            ]
        },
        "zpev-pred-evangeliem": {
            "name": "Zpěv před evangeliem – Mt 4,4b",
            "type": "Zpěv před evangeliem",
            "ref": "Mt 4,4b",
            "lines": [
                "Aleluja. Nejen z chleba žije člověk, ale z každého slova, které vychází z Božích úst. Aleluja."
            ]
        },
        "evangelium": {
            "name": "Evangelium – Mk 8,1-10",
            "type": "Evangelium",
            "ref": "Mk 8,1-10",
            "lines": [
                "Najedli se dosyta.",
                "Slova svatého evangelia podle Marka.",
                "V těch dnech byl s Ježíšem zase velký zástup a neměli co jíst. Zavolal si učedníky a řekl jim: „Je mi líto zástupu, protože už tři dni jsou se mnou a nemají co jíst. Když je pošlu domů hladové, cestou je opustí síly, vždyť někteří z nich jsou zdaleka.“ Jeho učedníci mu odpověděli: „Kde by kdo mohl tady v neobydleném kraji sehnat tolik chleba, aby je nasytil?“ Zeptal se jich: „Kolik máte chlebů?“ Odpověděli: „Sedm.“ Rozkázal, aby se lid posadil na zem, vzal těch sedm chlebů, vzdal díky, lámal a dával učedníkům, aby je předkládali; předložili je tedy lidu. Měli také několik malých ryb. Požehnal je a řekl, aby i ty předkládali. A najedli se dosyta a sesbíralo se ještě sedm košíků zbylých kousků. Těch (lidí) bylo na čtyři tisíce. Potom je propustil. Hned pak vstoupil se svými učedníky na loď a připlul do dalmanutských končin."
            ]
        }
    }
}
