{
    "name": "Úterý po 5. neděli v mezidobí",
    "stupen-slaveni": "běžný",
    "color": {
        "cz": "zelená",
        "en": "green"
    },
    "misal": {
        "1-cteni": {
            "name": "1. čtení – Gn 1,20–2,4a",
            "type": "1. čtení",
            "ref": "Gn 1,20–2,4a",
            "lines": [
                "Učiňme člověka jako náš obraz, podle naší podoby.",
                "Čtení z první knihy Mojžíšovy.",
                "Bůh řekl: „Ať se hemží voda živočichy a ptáci ať poletují nad zemí na nebeské obloze!“ Bůh stvořil velká vodní zvířata a všechny živočichy nejrůznějších druhů, schopné pohybu, jimiž se hemží voda, a všechny okřídlené tvory nejrůznějších druhů. Bůh viděl, že je to dobré. Bůh jim požehnal slovy: „Ploďte a množte se a naplňte vodu v mořích a ptactvo ať se množí na zemi!“ Nastal večer, nastalo jitro – den pátý. Potom Bůh řekl: „Ať vydá země živočichy různého druhu: krotká zvířata, drobnou zvířenu a divokou zvěř nejrůznějšího druhu.“ A stalo se tak. Bůh udělal různé druhy divoké zvěře, krotkých zvířat a všechny druhy drobné zemské zvířeny. Bůh viděl, že je to dobré. Potom Bůh řekl: „Učiňme člověka jako náš obraz, podle naší podoby. Ať vládne nad mořskými rybami, nad nebeským ptactvem, nad krotkými zvířaty, divokou zvěří a nad veškerou drobnou zvířenou, která se pohybuje po zemi.“ Bůh stvořil člověka jako svůj obraz, jak obraz Boží ho stvořil; stvořil je jako muže a ženu. Bůh jim požehnal slovy: „Ploďte a množte se, naplňte zemi a podmaňte si ji! Vládněte nad rybami moře, nad ptactvem nebe i nade všemi živočichy, kteří se pohybují po zemi.“ A připojil: „Hle, k jídlu vám dávám všechny semenotvorné rostliny, co jich je na zemi, a všechny stromy, které plodí ovoce s jádry uvnitř. Též veškeré divoké zvěři, všemu nebeskému ptactvu, všemu, co se pohybuje po zemi a má v sobě dech života, dávám za pokrm všechny zelené rostliny.“ A stalo se tak. Bůh viděl všechno, co udělal, a hle – bylo to velmi dobré. Nastal večer, nastalo jitro – den šestý. Tak byla dokončena nebesa, země a všechno, co je oživuje. Sedmého dne Bůh skončil své dílo, které udělal, a přestal sedmého dne s veškerou prací, kterou vykonal. Bůh požehnal sedmému dni a posvětil ho, neboť v něm přestal s veškerým svým dílem, které stvořil a udělal.To je původ nebe a země, jejich stvoření."
            ]
        },
        "mezizpev": {
            "name": "Mezizpěv – Žl 8,4-5.6-7.8-9",
            "type": "Mezizpěv",
            "ref": "Žl 8,4-5.6-7.8-9",
            "lines": [
                "Hospodine, náš Pane, jak podivuhodné je tvé jméno po celé zemi!",
                "Když se zahledím na tvá nebesa, dílo tvých prstů,\nna měsíc, na hvězdy, které jsi stvořil:\nCo je člověk, že na něho myslíš,\nco je smrtelník, že se o něho staráš?",
                "Učinils ho jen o málo menším, než jsou andělé,\nověnčils ho ctí a slávou,\ndals mu vládnout nad dílem svých rukou,\npoložils mu k nohám všechno:",
                "Ovce i veškerý dobytek,\nk tomu i polní zvířata,\nptáky na nebi a ryby v moři,\nvše, co se hemží na stezkách moří."
            ]
        },
        "zpev-pred-evangeliem": {
            "name": "Zpěv před evangeliem – Žl 119,36a.29b",
            "type": "Zpěv před evangeliem",
            "ref": "Žl 119,36a.29b",
            "lines": [
                "Aleluja. Nakloň, Bože, mé srdce k svým přikázáním, uštědři mi svůj zákon! Aleluja."
            ]
        },
        "evangelium": {
            "name": "Evangelium – Mk 7,1-13",
            "type": "Evangelium",
            "ref": "Mk 7,1-13",
            "lines": [
                "Opustili jste přikázání Boží a držíte se podání lidského.",
                "Slova svatého evangelia podle Marka.",
                "Kolem Ježíše se shromáždili farizeové a někteří z učitelů Zákona, kteří přišli z Jeruzaléma. Všimli si, že někteří z jeho učedníků jedí rukama obřadně nečistýma, to je neumytýma. Farizeové totiž a všichni židé se drží podání předků a nejedí, dokud si pečlivě neumyjí ruce; (po návratu) z trhu nejedí, dokud se celí neopláchnou; a je mnoho jiného, co přejali a čeho se drží: omývání pohárů, džbánů, měděných nádob a lehátek. Proto se ho farizeové a učitelé Zákona ptali: „Proč se tvoji učedníci nechovají podle podání předků, ale jedí obřadně nečistýma rukama?“ Odpověděl jim: „Pokrytci! Dobře to o vás předpověděl Izaiáš, jak je psáno: `Tento lid mě uctívá rty, ale jejich srdce je daleko ode mě. Nadarmo mě však uctívají, když učí naukám, které jsou lidskými ustanoveními.' Opustili jste přikázání Boží a držíte se podání lidského.“ A řekl jim: „Jak dovedně rušíte Boží přikázání, abyste zachovali svoje podání! Vždyť Mojžíš nařídil: `Cti svého otce a svou matku' a `Kdo potupí otce nebo matku, ať propadne trestu smrti'! Vy však říkáte: `Kdo by prohlásil otci nebo matce: To, čím bych ti měl pomáhat, je „korban“, to jest dar (pro chrám)' – už mu dovolujete, že pro otce nebo matku nemusí nic udělat. Tak rušíte Boží slovo svým podáním a odevzdáváte to dál. A takových podobných věcí děláte mnoho.“"
            ]
        }
    }
}
