{
    "name": "Svátek sv. Filipa a Jakuba, apoštolů",
    "stupen-slaveni": "svátek",
    "color": {
        "cz": "červená",
        "en": "red"
    },
    "misal": {
        "1-cteni": {
            "name": "1. čtení – 1 Kor 15,1-8",
            "type": "1. čtení",
            "ref": "1 Kor 15,1-8",
            "lines": [
                "Pán se zjevil Jakubovi, pak všem apoštolům.",
                "Čtení z prvního listu svatého apoštola Pavla Korinťanům.",
                "Chci vám, bratři, vyložit radostnou zvěst, kterou jsem vám už hlásal. Vy jste ji přijali a jste v tom pevní. Ona vás vede ke spáse, když se jí držíte přesně tak, jak jsem vám to kázal; jinak jste uvěřili nadarmo. Vyučil jsem vás především v tom, co jsem sám přijal, že Kristus umřel ve shodě s Písmem za naše hříchy; že byl pohřben a že vstal z mrtvých třetího dne ve shodě s Písmem; že se ukázal Petrovi a potom Dvanácti. Pak se zjevil více než pěti stům bratřím najednou – většina z nich dosud žije, někteří však už zesnuli. Potom se zjevil Jakubovi, pak všem apoštolům. A po všech jako poslední jsem ho uviděl i já, nedochůdče."
            ]
        },
        "mezizpev": {
            "name": "Mezizpěv – Žl 19,2-3.4-5",
            "type": "Mezizpěv",
            "ref": "Žl 19,2-3.4-5",
            "lines": [
                "Všude na zemi pronikl jejich hlas.",
                "Nebo: Aleluja.",
                "Nebesa vypravují o Boží slávě\na dílo jeho rukou zvěstuje obloha.\nDen dni o tom podává zprávu,\nnoc noci sděluje poučení.",
                "Není to slovo a nejsou to řeči,\njejichž hlas by nebylo slyšet.\nDo celé země vychází jejich hlahol,\naž na konec světa jejich slova."
            ]
        },
        "zpev-pred-evangeliem": {
            "name": "Zpěv před evangeliem – Jan 14,6b.9c",
            "type": "Zpěv před evangeliem",
            "ref": "Jan 14,6b.9c",
            "lines": [
                "Aleluja. Já jsem cesta, pravda a život, praví Pán; Filipe, kdo viděl mne, viděl Otce. Aleluja."
            ]
        },
        "evangelium": {
            "name": "Evangelium – Jan 14,6-14",
            "type": "Evangelium",
            "ref": "Jan 14,6-14",
            "lines": [
                "Tak dlouho jsem s vámi, a neznáš mě?",
                "Slova svatého evangelia podle Jana.",
                "Ježíš řekl Tomášovi: „Já jsem cesta, pravda a život. Nikdo nepřichází k Otci než skrze mne. Kdybyste znali mne, znali byste i mého Otce. Nyní ho už znáte a viděli jste ho.“ Filip mu řekl: „Pane, ukaž nám Otce – a to nám stačí.“ Ježíš mu odpověděl: „Filipe, tak dlouho jsem s vámi, a neznáš mě? Kdo viděl mne, viděl Otce. Jak můžeš říci: `Ukaž nám Otce'? Nevěříš, že já jsem v Otci a Otec je ve mně? Slova, která k vám mluvím, nemluvím sám ze sebe; to Otec, který ve mně přebývá, koná své skutky. Věřte mi, že já jsem v Otci a Otec ve mně. Když nevěříte, věřte aspoň pro ty skutky. Amen, amen, pravím vám: Kdo věří ve mne, i ten bude konat skutky, které já konám, ba ještě větší bude konat, protože já odcházím k Otci. A za cokoli budete prosit ve jménu mém, to všechno udělám, aby Otec byl oslaven v Synovi. Budete-li mě o něco prosit ve jménu mém, já to udělám.“"
            ]
        }
    }
}
