{
    "name": "Úterý po 5. neděli velikonoční",
    "stupen-slaveni": "běžný",
    "color": {
        "cz": "bílá",
        "en": "white"
    },
    "misal": {
        "1-cteni": {
            "name": "1. čtení – Sk 14,19-28",
            "type": "1. čtení",
            "ref": "Sk 14,19-28",
            "lines": [
                "Svolali církevní obec a vypravovali, co všecko Bůh s nimi vykonal.",
                "Čtení ze Skutků apoštolů.",
                "Do Lystry přišli židé z Antiochie a z Ikónia, přemluvili dav a začali Pavla kamenovat. Pak ho vyvlekli ven z města, protože mysleli, že už je mrtvý. Když ho však učedníci obstoupili, vstal a šel zase do města. Ale na druhý den odešel s Barnabášem do Derbe. Také v tomto městě hlásali radostnou zvěst a získali mnoho učedníků. Potom se vrátili do Lystry, Ikónia a do Antiochie. Utvrzovali tam učedníky a povzbuzovali je, aby byli ve víře vytrvalí, protože do Božího království vejdeme jen tehdy, když hodně vytrpíme. V jednotlivých církevních obcích jim po modlitbě a postu ustanovili starší a poručili je Pánu, v kterého uvěřili. Potom prošli Pisídií a Pamfýlií a hlásali slovo Páně v Perge. Pak odešli do Atálie. Odtamtud odpluli lodí do Antiochie, kde byli kdysi doporučeni milosti Boží k dílu, které teď ukončili. Když tam přišli, svolali církevní obec a vypravovali, co všechno Bůh s nimi vykonal a jak otevřel bránu k víře pohanům. A zůstali pak s (tamějšími) učedníky delší čas."
            ]
        },
        "mezizpev": {
            "name": "Mezizpěv – Žl 145,10-11.12-13ab.21",
            "type": "Mezizpěv",
            "ref": "Žl 145,10-11.12-13ab.21",
            "lines": [
                "Ať tvoji zbožní, Hospodine, vypravují o slávě tvé vznešené říše.",
                "Nebo: Aleluja.",
                "Ať tě chválí, Hospodine, všechna tvá dílaa tvoji zbožní ať tě velebí!Ať vypravují o slávě tvého království,ať mluví o tvé síle!",
                "Aby poučili lidi o tvé moci,o slávě tvé vznešené říše.Tvé království je království všech věkůa tvá vláda trvá po všechna pokolení.",
                "Ať má ústa hlásají Hospodinovu chválu,vše, co žije, ať velebí jeho svaté jméno po všechny věky!"
            ]
        },
        "zpev-pred-evangeliem": {
            "name": "Zpěv před evangeliem – srov. Lk 24,46.26",
            "type": "Zpěv před evangeliem",
            "ref": "srov. Lk 24,46.26",
            "lines": [
                "Aleluja. Kristus musel trpět a vstát z mrtvých, a tak vejít do své slávy. Aleluja."
            ]
        },
        "evangelium": {
            "name": "Evangelium – Jan 14,27-31a",
            "type": "Evangelium",
            "ref": "Jan 14,27-31a",
            "lines": [
                "Svůj pokoj vám dávám.",
                "Slova svatého evangelia podle Jana.",
                "Ježíš řekl svým učedníkům: „Pokoj vám zanechávám, svůj pokoj vám dávám; ne ten, který dává svět, já vám dávám. Ať se vaše srdce nechvěje a neděsí. Slyšeli jste, že jsem vám řekl: `Odcházím' a `(zase) k vám přijdu.' Kdybyste mě milovali, radovali byste se, že jdu k Otci, neboť Otec je větší než já. Řekl jsem vám to už teď, dříve než se to stane, abyste uvěřili, až se to stane. Už s vámi nebudu mnoho mluvit, protože přichází vládce tohoto světa. Proti mně však nezmůže nic. Ale ať svět pozná, že miluji Otce a jednám, jak mi Otec přikázal.“"
            ]
        }
    }
}
