click==7.1.2
future==0.18.2
importlib-metadata==3.4.0
Jinja2==2.11.3
joblib==1.0.0
livereload==2.6.3
lunr==0.5.8
Markdown==3.3.3
MarkupSafe==1.1.1
mkdocs==1.1.2
mkdocs-git-revision-date-localized-plugin==0.8
mkdocs-material==6.2.8
mkdocs-material-extensions==1.0.1
mkdocs-redirects==1.0.1
nltk==3.5
pkg-resources==0.0.0
Pygments==2.7.4
pymdown-extensions==8.1.1
PyYAML==5.4.1
regex==2020.11.13
six==1.15.0
tornado==6.1
tqdm==4.56.0
typing-extensions==3.7.4.3
zipp==3.4.0
